marque;Equiv
RENAULT;RENAULT
PEUGEOT;PEUGEOT
CITROEN;CITROEN
VOLKSWAGEN;VOLKSWAGEN
FORD;FORD
OPEL;OPEL
TOYOTA;TOYOTA
DACIA;DACIA
AUDI;AUDI
MERCEDES BENZ;MERCEDES
FIAT;FIAT
BMW;BMW
NISSAN;NISSAN
SEAT;SEAT
HYUNDAI;HYUNDAI
KIA;KIA
MINI;MINI
SUZUKI;SUZUKI
SKODA;SKODA
VOLVO;VOLVO
ALFA ROMEO;ALFA ROMEO
MAZDA;MAZDA
HONDA;HONDA
DS;DS
CHEVROLET;CHEVROLET
PORSCHE;PORSCHE
SMART;SMART
LAND ROVER;LAND ROVER
JEEP;JEEP
MITSUBISHI;MITSUBISHI
B.M.W.;BMW
LEXUS;LEXUS
LANCIA;LANCIA
JAGUAR;JAGUAR
CHRYSLER;CHRYSLER
MERCEDES;MERCEDES
TESLA;TESLA
ROVER;ROVER
JAGUAR LAND ROVER LIMITED;JAGUAR
---HYUNDAI;HYUNDAI
--KIA;KIA
--RENAULT;RENAULT
-+AUDI;AUDI
-+FORD;FORD
-ALFA ROMEO;ALFA ROMEO
-CITROEN;CITROEN
-FORD;FORD
-LAND ROVER;LAND ROVER
-MAZDA;MAZDA
-NISSAN;NISSAN
-PEUGEOT;PEUGEOT
-RENAULT;RENAULT
-SSANGYONG;SSANGYONG
-VOLKSWAGEN;VOLKSWAGEN
? RENAULT;RENAULT
..................CITROEN;CITROEN
..FIAT;FIAT
.0JEEP;JEEP
.3AUDI;AUDI
.AUDI;AUDI
.BMW;BMW
.CITROEN;CITROEN
.DS;DS
.FIAT;FIAT
.FORD;FIAT
.MERCEDES BENZ;MERCEDES
.MITSUBISHI;MITSUBISHI
.NISSAN;NISSAN
.OPEL;OPEL
.PEUGEOT;PEUGEOT
.PORSCHE;PORSCHE
.RENAULT;RENAULT
.ROVER;ROVER
.SEAT;SEAT
.TOYOTA;TOYOTA
.VOLKSWAGEN;VOLKSWAGEN
.VOLVO;VOLVO
'MAZDA;MAZDA
§CITROEN;CITROEN
@PEUGEOT;PEUGEOT
*CITROEN;CITROEN
*ETHLEFFS;UNKNOWN
*RENAULT;RENAULT
/BMW;BMW
/MODPEUGEOT;PEUGEOT
/PEUGEOT;PEUGEOT
/RECPEUGEOT;PEUGEOT
+-RENAULT;RENAULT
+75MAZDA;MAZDA
+CITROEN;CITROEN
+DACIA;DACIA
+FORD;FORD
+JAGUAR;JAGUAR
+KIA;KIA
+MERCEDES BENZ;MERCEDES
+PEUGEOT;PEUGEOT
+RENAULT;RENAULT
+SEAT;SEAT
+VOLKSWAGEN;VOLKSWAGEN
+VOLVO;VOLKSWAGEN
<CITROEN;CITROEN
<MERCEDES BENZ;MERCEDES
$RENAULT;RENAULT
£%SEAT;SEAT
0.PEUGEOT;PEUGEOT
00000000ALFA ROMEO;ALFA ROMEO
0000DACIA;DACIA
000CITROEN;CITROEN
000TOYOTA;TOYOTA
00AUDI;AUDI
00CITROEN;CITROEN
00HONDA;HONDA
00MAZDA;MAZDA
00PEUGEOT;PEUGEOT
00RENAULT;RENAULT
01111FIAT;FIAT
01MERCEDES BENZ;MERCEDES
01PEUGEOT;PEUGEOT
020FORD;FORD
02VOLKSWAGEN;VOLKSWAGEN
041FORD;FORD
04PEUGEOT;PEUGEOT
04RENAULT;RENAULT
0670PEUGEOT;PEUGEOT
075AUDI;AUDI
078CITROEN;CITROEN
091VOLKSWAGEN;VOLKSWAGEN
098DACIA;DACIA
0AUDI;AUDI
0B.M.W.;BMW
0BMW;BMW
0CITROEN;CITROEN
0DACIA;DACIA
DAEWOO;DAEWOO
0FORD;FORD
0HONDA;HONDA
0IRISBUS;0IRISBUS
0JEEP;JEEP
0KIA;KIA
0LAND ROVER;LAND ROVER
0MAZDA;MAZDA
0MERCEDES BENZ;MERCEDES
0NISSAN;NISSAN
0PEL;OPEL
0PEUGEOT;PEUGEOT
0PORSCHE;PORSCHE
0RENAULT;RENAULT
0SUBARU;SUBARU
0VOLKSWAGEN;VOLKSWAGEN
1005RENAULT;RENAULT
1006SEAT;SEAT
1007KIA;KIA
100AUDI;AUDI
100PEUGEOT;PEUGEOT
1010FIAT;FIAT
1018VOLKSWAGEN;VOLKSWAGEN
1020RENAULT;RENAULT
1021VOLKSWAGEN;VOLKSWAGEN
1025PEUGEOT;PEUGEOT
102CITROEN;CITROEN
1031CITROEN;CITROEN
1035CITROEN;CITROEN
1035NISSAN;NISSAN
1035RENAULT;RENAULT
1038PEUGEOT;PEUGEOT
1040DACIA;DACIA
1040FORD;FORD
1040RENAULT;RENAULT
1040VOLKSWAGEN;VOLKSWAGEN
1041FORD;FORD
1043VOLKSWAGEN;VOLKSWAGEN
104RENAULT;RENAULT
1050RENAULT;RENAULT
1050TOYOTA;TOYOTA
1053CITROEN;CITROEN
1055DACIA;DACIA
1055PEUGEOT;PEUGEOT
1055RENAULT;RENAULT
1056FORD;FORD
1060SUZUKI;SUZUKI
1061PEUGEOT;PEUGEOT
1065OPEL;OPEL
1066CITROEN;CITROEN
1070MITSUBISHI;MITSUBISHI
1070PEUGEOT;PEUGEOT
1073FORD;FIAT
1075RENAULT;RENAULT
1080VOLKSWAGEN;VOLKSWAGEN
1082-75DACIA;DACIA
1083VOLKSWAGEN;VOLKSWAGEN
1084-75PEUGEOT;PEUGEOT
1084FORD;FORD
1084PEUGEOT;PEUGEOT
1085CITROEN;CITROEN
1089CITROEN;CITROEN
108CITROEN;CITROEN
1090RENAULT;RENAULT
1090VOLKSWAGEN;VOLKSWAGEN
1091DACIA;DACIA
1095DACIA;DACIA
1095FORD;FORD
1095RENAULT;RENAULT
1097CITROEN;CITROEN
1098DACIA;DACIA
10CITROEN;CITROEN
10JEEP;JAGUAR
10RENAULT;RENAULT
10VOLKSWAGEN;VOLKSWAGEN
1101VOLKSWAGEN;VOLKSWAGEN
1102PEUGEOT;PEUGEOT
1108FORD;FORD
110PEUGEOT;PEUGEOT
1115+75PEUGEOT;PEUGEOT
1115DACIA;DACIA
1115PEUGEOT;PEUGEOT
111PEUGEOT;PEUGEOT
111RENAULT;RENAULT
1123CITROEN;CITROEN
1125PEUGEOT;PEUGEOT
1126ITROEN;CITROEN
112MITSUBISHI;MITSUBISHI
1130DAIHATSU;DAIHATSU
1130RENAULT;RENAULT
1135FORD;FORD
1139VOLKSWAGEN;VOLKSWAGEN
1141PEUGEOT;PEUGEOT
1145PEUGEOT;PEUGEOT
1150MAZDA;MAZDA
1150RENAULT;RENAULT
1151VOLKSWAGEN;VOLKSWAGEN
1153CITROEN;CITROEN
1155RENAULT;RENAULT
1156VOLKSWAGEN;VOLKSWAGEN
1158VOLKSWAGEN;VOLKSWAGEN
1159CITROEN;CITROEN
1159PEUGEOT;PEUGEOT
115DACIA;DACIA
115PEUGEOT;PEUGEOT
1160NISSAN;NISSAN
1160RENAULT;RENAULT
1163VOLKSWAGEN;VOLKSWAGEN
1164SEAT;SEAT
1164VOLKSWAGEN;VOLKSWAGEN
1165DACIA;DACIA
1165FORD;FORD
1165PEUGEOT;PEUGEOT
1166FORD;FORD
1167FORD;FORD
116SUZUKI;SUZUKI
1170VOLKSWAGEN;VOLKSWAGEN
1175HONDA;HONDA
1175PEUGEOT;PEUGEOT
1180DACIA;DACIA
1180RENAULT;RENAULT
1184PEUGEOT;PEUGEOT
1185MAZDA;MAZDA
1185PEUGEOT;PEUGEOT
1190PEUGEOT;PEUGEOT
1191PEUGEOT;PEUGEOT
1193CITROEN;CITROEN
1197MG;MG
119HONDA;HONDA
11ALFA ROMEO;ALFA ROMEO
11DODGE;DODGE
11PEUGEOT;PEUGEOT
11SUZUKI;SUZUKI
11VOLKSWAGEN;VOLKSWAGEN
1200DACIA;DACIA
1201DACIA;DACIA
1209SEAT;SEAT
1210PEUGEOT;PEUGEOT
1210RENAULT;RENAULT
1214PEUGEOT;PEUGEOT
1215PEUGEOT;PEUGEOT
1215RENAULT;RENAULT
1216SEAT;SEAT
1219SEAT;SEAT
1220RENAULT;RENAULT
1223FIAT;FIAT
1224PEUGEOT;PEUGEOT
1226DACIA;DACIA
1226SEAT;SEAT
1227CITROEN;CITROEN
1228PEUGEOT;PEUGEOT
1230+75NISSAN;NISSAN
1230RENAULT;RENAULT
1231VOLKSWAGEN;VOLKSWAGEN
1235RENAULT;RENAULT
12364VOLKSWAGEN;VOLKSWAGEN
1236SEAT;SEAT
1240CITROEN;CITROEN
1240RENAULT;RENAULT
1243FORD;FORD
1248CITROEN;CITROEN
1248FORD;FORD
1250HYUNDAI;HYUNDAI
1255NISSAN;NISSAN
1255RENAULT;RENAULT
1257HYUNDAI;HYUNDAI
1260HYUNDAI;HYUNDAI
12655DACIA;DACIA
1265PEUGEOT;PEUGEOT
1268PEUGEOT;PEUGEOT
1272PEUGEOT;PEUGEOT
1276DACIA;DACIA
1279HONDA;HONDA
127DACIA;DACIA
1280DACIA;DACIA
1280VOLKSWAGEN;VOLKSWAGEN
1283DACIA;DACIA
128DACIA;DACIA
128FORD;FORD
1290TOYOTA;TOYOTA
1293VOLKSWAGEN;VOLKSWAGEN
1294PEUGEOT;PEUGEOT
1295PEUGEOT;PEUGEOT
1295RENAULT;RENAULT
1298CITROEN;CITROEN
1298SEAT;SEAT
12CITROEN;CITROEN
12DACIA;DACIA
12NISSAN;NISSAN
12PEUGEOT;PEUGEOT
12RENAULT;RENAULT
12VOLKSWAGEN;VOLKSWAGEN
13 QM 013;UNKNOWN
1300RENAULT;RENAULT
13040RENAULT;RENAULT
1304PEUGEOT;PEUGEOT
130516FORD;FORD
1306CITROEN;CITROEN
1308CITROEN;CITROEN
1308VOLKSWAGEN;VOLKSWAGEN
1310RENAULT;RENAULT
1312VOLKSWAGEN;VOLKSWAGEN
1313CITROEN;CITROEN
1313DACIA;DACIA
1315CITROEN;CITROEN
1315PEUGEOT;PEUGEOT
1319VOLKSWAGEN;VOLKSWAGEN
1320CITROEN;CITROEN
1320MITSUBISHI;MITSUBISHI
1320RENAULT;RENAULT
1323VOLKSWAGEN;VOLKSWAGEN
1325RENAULT;RENAULT
1325TOYOTA;TOYOTA
1329+VOLKSWAGEN;VOLKSWAGEN
1329CITROEN;CITROEN
132VOLKSWAGEN;VOLKSWAGEN
1335PEUGEOT;PEUGEOT
1339AUDI;AUDI
1341FORD;FORD
1342PEUGEOT;PEUGEOT
1344FORD;FIAT
1349DACIA;DACIA
134CITROEN;CITROEN
1351VOLKSWAGEN;VOLKSWAGEN
1352-75VOLKSWAGEN;VOLKSWAGEN
1355RENAULT;RENAULT
13601360ENAULT;RENAULT
1365NISSAN;NISSAN
1365RENAULT;RENAULT
1369DACIA;DACIA
136CITROEN;CITROEN
1370AUDI;AUDI
1371PEUGEOT;PEUGEOT
1373CITROEN;CITROEN
1375CITROEN;CITROEN
1375PEUGEOT;PEUGEOT
1381VOLKSWAGEN;VOLKSWAGEN
1385RENAULT;RENAULT
1386CITROEN;CITROEN
1386PEUGEOT;PEUGEOT
1389VOLKSWAGEN;VOLKSWAGEN
139 PEUGEOT;PEUGEOT
1391VOLKSWAGEN;VOLKSWAGEN
1393SEAT;SEAT
1394OPEL;OPEL
1395DACIA;DACIA
1395FIAT;FIAT
1395RENAULT;RENAULT
1398DACIA;DACIA
1398VOLKSWAGEN;VOLKSWAGEN
139CITROEN;CITROEN
13CITROEN;CITROEN
13DACIA;DACIA
13NISSAN;NISSAN
13PEUGEOT;PEUGEOT
13RENAULT;RENAULT
13VOLKSWAGEN;VOLKSWAGEN
1400VOLKSWAGEN;VOLKSWAGEN
1403PEUGEOT;PEUGEOT
1405AUDI;AUDI
1409NISSAN;NISSAN
140PEUGEOT;PEUGEOT
141460ENAULT;RENAULT
1415PEUGEOT;PEUGEOT
1420SUZUKI;SUZUKI
1421PEUGEOT;PEUGEOT
1421VOLKSWAGEN;VOLKSWAGEN
1425RENAULT;RENAULT
1431PEUGEOT;PEUGEOT
1433PEUGEOT;PEUGEOT
1434PEUGEOT;PEUGEOT
1436VOLKSWAGEN;VOLKSWAGEN
1445TOYOTA;TOYOTA
1449+FORD;FORD
1450AUDI;AUDI
1458ALFA ROMEO;ALFA ROMEO
1460RENAULT;RENAULT
1461RENAULT;RENAULT
1466CITROEN;CITROEN
1466MAZDA;MAZDA
1468PEUGEOT;PEUGEOT
1468VOLKSWAGEN;VOLKSWAGEN
1470MAZDA;MAZDA
1473KIA;KIA
1475RENAULT;RENAULT
1480NISSAN;NISSAN
1481PEUGEOT;PEUGEOT
1483DACIA;DACIA
1485PEUGEOT;PEUGEOT
1489CITROEN;CITROEN
1490FIAT;FIAT
1492PEUGEOT;PEUGEOT
1496PEUGEOT;PEUGEOT
14AUDI;AUDI
14DACIA;DACIA
14PEUGEOT;PEUGEOT
14SAAB;SAAB
1500DACIA;DACIA
1505RENAULT;RENAULT
15060CITROEN;CITROEN
1506FORD;FORD
150VOLKSWAGEN;VOLKSWAGEN
1520RENAULT;RENAULT
1532PEUGEOT;PEUGEOT
1535PEUGEOT;PEUGEOT
1535PORSCHE;PORSCHE
1537LAND ROVER;LAND ROVER
1545RENAULT;RENAULT
1550SUZUKI;SUZUKI
1553HYUNDAI;HYUNDAI
1560CITROEN;CITROEN
1565AUDI;AUDI
1565TOYOTA;TOYOTA
156CITROEN;CITROEN
1574FORD;FORD
1576PEUGEOT;PEUGEOT
157868RENAULT;RENAULT
1595FIAT;FIAT
1595ROVER;ROVER
159VOLKSWAGEN;VOLKSWAGEN
15FIAT;FIAT
15VOLKSWAGEN;VOLKSWAGEN
1605FIAT;FIAT
1605VOLKSWAGEN;VOLKSWAGEN
160617RENAULT;RENAULT
160RENAULT;RENAULT
1615MITSUBISHI;MITSUBISHI
1625PEUGEOT;PEUGEOT
1626VOLKSWAGEN;VOLKSWAGEN
162AUDI;AUDI
1630NISSAN;NISSAN
1634VOLKSWAGEN;VOLKSWAGEN
1650FIAT;FIAT
1650PEUGEOT;PEUGEOT
166DACIA;DACIA
1670CITROEN;CITROEN
1670PEUGEOT;PEUGEOT
1685JEEP;JEEP
168VOLKSWAGEN;VOLKSWAGEN
1690NISSAN;NISSAN
1690PEUGEOT;PEUGEOT
1703MAZDA;MAZDA
1705ALFA ROMEO;ALFA ROMEO
1705RENAULT;RENAULT
1710NISSAN;NISSAN
1710PEUGEOT;PEUGEOT
1715RENAULT;RENAULT
1720TOYOTA;TOYOTA
1724RENAULT;RENAULT
1730AUDI;AUDI
1760HYUNDAI;HYUNDAI
1785NISSAN;NISSAN
1795DACIA;DACIA
1796OPEL;OPEL
179HYUNDAI;HYUNDAI
17CITROEN;CITROEN
17DACIA;DACIA
17SUZUKI;SUZUKI
1807RENAULT;RENAULT
1815LEXUS;LEXUS
1820HYUNDAI;HYUNDAI
1830AUDI;AUDI
1840MERCEDES BENZ;MERCEDES
1852PEUGEOT;PEUGEOT
1865LEXUS;LEXUS
1880HYUNDAI;HYUNDAI
1894AUDI;AUDI
1897JAGUAR;JAGUAR
18HYUNDAI;HYUNDAI
1900JAGUAR LAND ROVER LIMITED;JAGUAR
190HYUNDAI;HYUNDAI
1910INFINITI;DIVERS
1918JAGUAR;JAGUAR
1926JEEP;JAGUAR
1940VOLKSWAGEN;VOLKSWAGEN
1945450080VOLKSWAGEN;VOLKSWAGEN
1945AUDI;AUDI
1950JEEP;JEEP
195PORSCHE;PORSCHE
1960NISSAN;NISSAN
1976RENAULT;RENAULT
1980FORD;FIAT
19830CHEVROLET;CHEVROLET
1997KIA;KIA
19CITROEN;CITROEN
19LAND ROVER;LAND ROVER
1AUDI;AUDI
1BMW;BMW
1CITROEN;CITROEN
1DACIA;DACIA
1FIAT;FIAT
1FORD;FORD
1HYUNDAI;HYUNDAI
1JAGUAR;JAGUAR
1OPEL;OPEL
1PEUGEOT;PEUGEOT
1RENAULT;RENAULT
1RFE00156928759RENAULT;RENAULT
1RLX110;DIVERS
1SEAT;SEAT
1TOYOTA;TOYOTA
1VOLKSWAGEN;VOLKSWAGEN
2 RENAULT;RENAULT
2*2001/RENAULT;RENAULT
²%FORD;FORD
20012017NISSAN;NISSAN
200DACIA;DACIA
200PEUGEOT;PEUGEOT
2014SUZUKI;SUZUKI
201DACIA;DACIA
201LAND ROVER;LAND ROVER
2033JAGUAR;JAGUAR
206PEUGEOT;PEUGEOT
208PEUGEOT;PEUGEOT
2095INFINITI;INFINITY
20CHEVROLET;CHEVROLET
2120SSANGYONG;SSANGYONG
2125LAND ROVER;LAND ROVER
2150CHRYSLER;CHRYSLER
2185VOLVO;VOLVO
21AUDI;AUDI
220ALFA ROMEO;ALFA ROMEO
2215NISSAN;NISSAN
2235MERCEDES BENZ;MERCEDES
2254KIA;KIA
2269VOLKSWAGEN;VOLKSWAGEN
2274VOLKSWAGEN;VOLKSWAGEN
22NAULT;RENAULT
2301MERCEDES BENZ;MERCEDES
2315MERCEDES BENZ;MERCEDES
234MERCEDES BENZ;MERCEDES
2350RENAULT;RENAULT
2403JEEP;JEEP
2405MERCEDES BENZ;MERCEDES
240AUDI;AUDI
2430PORSCHE;PORSCHE
2430TOYOTA;TOYOTA
2490VOLKSWAGEN;VOLKSWAGEN
2522JAGUAR LAND ROVER LIMITED;JAGUAR
2530LAND ROVER;LAND ROVER
2550LAND ROVER;LAND ROVER
25LAND ROVER;LAND ROVER
25PEUGEOT;PEUGEOT
2601335PEUGEOT;PEUGEOT
2610LAND ROVER;LAND ROVER
2643LAND ROVER;LAND ROVER
2740PORSCHE;PORSCHE
2745LAND ROVER;LAND ROVER
2775CHRYSLER;CHRYSLER
2790PÖSSL;DIVERS
285TOYOTA;TOYOTA
2860VOLKSWAGEN;VOLKSWAGEN
287VOLKSWAGEN;VOLKSWAGEN
28NAULT;RENAULT
28VOLKSWAGEN;VOLKSWAGEN
2964DACIA;DACIA
299CITROEN;CITROEN
29OPEL;OPEL
²B.M.W.;BMW
2BMW;BMW
2CITROEN;CITROEN
2DACIA;DACIA
²FORD;FORD
2HONDA;HONDA
2JEEP;JEEP
2KIA;KIA
²MERCEDES BENZ;MERCEDES
2NISSAN;NISSAN
²OPEL;OPEL
2PEUGEOT;PEUGEOT
²PEUGEOT;PEUGEOT
²RENAULT;RENAULT
2RENAULT;RENAULT
²TOYOTA;TOYOTA
3 SMART;SMART
3000PEUGEOT;PEUGEOT
300DACIA;DACIA
30122016VOLKSWAGEN;VOLKSWAGEN
3015BURSTNER GMBH;DIVERS
3070LAND ROVER;LAND ROVER
308PEUGEOT;PEUGEOT
310ALFA ROMEO;ALFA ROMEO
313CITROEN;CITROEN
318 BEV 59FIAT;FIAT
320232RENAULT;RENAULT
3295CITROEN;CITROEN
335PEUGEOT;PEUGEOT
35BMW;BMW
365CITROEN;CITROEN
366CITROEN;CITROEN
36PORSCHE;PORSCHE
3ALFA ROMEO;ALFA ROMEO
3C CARTIER;DIVERS
3CHEVROLET;CHEVROLET
3CITROEN;CITROEN
3DACIA;DACIA
3NISSAN;NISSAN
3PEUGEOT;PEUGEOT
3RENAULT;RENAULT
3SEAT;SEAT
3SKODA;SKODA
3SUBARU;SUBARU
3VOLKSWAGEN;VOLKSWAGEN
4 MINI;MINI
40JAGUAR;JAGUAR
40SANTANA;DIVERS
412HONDA;HONDA
42-RENAULT;RENAULT
44CITROEN;CITROEN
44RENAULT;RENAULT
45RENAULT;RENAULT
45VOLKSWAGEN;VOLKSWAGEN
474AUDI;AUDI
493CITROEN;CITROEN
4CITROEN;CITROEN
4FIAT;FIAT
4HYMER;DIVERS
4PEUGEOT;PEUGEOT
4VOLKSWAGEN;VOLKSWAGEN
4WSUBARU;SUBARU
5 RENAULT;RENAULT
50 BPP 06PEUGEOT;PEUGEOT
500AUDI;AUDI
500PEUGEOT;PEUGEOT
5021E7572RENAULT;RENAULT
52HONDA;HONDA
5316V6106CITROEN;CITROEN
5412NISSAN;NISSAN
555FIAT;FIAT
55BMW;BMW
55RENAULT;RENAULT
578NISSAN;NISSAN
57CITROEN;CITROEN
5825RENAULT;RENAULT
5BMW;BMW
5CHRYSLER;CHRYSLER
5CITROEN;CITROEN
5DACIA;DACIA
5MAZDA;MAZDA
5MERCEDES BENZ;MERCEDES
5OPEL;OPEL
5PEUGEOT;PEUGEOT
5RENAULT;RENAULT
5SEAT;SEAT
5VOLKSWAGEN;VOLKSWAGEN
5VOLVO;VOLVO
6 VOLKSWAGEN;VOLKSWAGEN
608SEAT;SEAT
652PEUGEOT;PEUGEOT
65BMW;BMW
65RENAULT;RENAULT
676JAGUAR;JAGUAR
68862RENAULT;RENAULT
68PEUGEOT;PEUGEOT
6908RENAULT;RENAULT
695DACIA;DACIA
LOTUS;LOTUS
6ALFA ROMEO;ALFA ROMEO
6BMW;BMW
6DACIA;DACIA
6FIAT;FIAT
6VOLKSWAGEN;VOLKSWAGEN
708PEUGEOT;PEUGEOT
70AUDI;AUDI
70B2AABKVOLKSWAGEN;VOLKSWAGEN
718AUDI;AUDI
72FORD;FORD
750NISSAN;NISSAN
75CITROEN;CITROEN
75LEXUS;LEXUS
75VOLKSWAGEN;VOLKSWAGEN
760NISSAN;NISSAN
76313DACIA;DACIA
769VOLKSWAGEN;VOLKSWAGEN
DAEWOO;DAEWOO
793NISSAN;NISSAN
7AUDI;AUDI
7CITROEN;CITROEN
7DACIA;DACIA
7FORD;FORD
7MERCEDES BENZ;MERCEDES
7OPEL;OPEL
7PEUGEOT;PEUGEOT
7RENAULT;RENAULT
7VOLKSWAGEN;VOLKSWAGEN
8 ORSCHE;PORSCHE
80CITROEN;CITROEN
80DACIA;DACIA
80FIAT;FIAT
81FORD;FORD
820RENAULT;RENAULT
825CITROEN;CITROEN
835LAND ROVER;LAND ROVER
LOTUS;LOTUS
840NISSAN;NISSAN
840RENAULT;RENAULT
DAEWOO;DAEWOO
855PEUGEOT;PEUGEOT
859CITROEN;CITROEN
85CHRYSLER;CHRYSLER
85RENAULT;RENAULT
865CHEVROLET;CHEVROLET
880DACIA;DACIA
880PEUGEOT;PEUGEOT
890FORD;FORD
890PEUGEOT;PEUGEOT
890RENAULT;RENAULT
8920PEUGEOT;PEUGEOT
895RENAULT;RENAULT
895TOYOTA;TOYOTA
8FORD;FORD
8PEUGEOT;PEUGEOT
8RENAULT;RENAULT
8VOLKSWAGEN;VOLKSWAGEN
902RMX;DACIA
906RENAULT;RENAULT
909CITROEN;CITROEN
90B.M.W.;BMW
90CITROEN;CITROEN
90RENAULT;RENAULT
DAEWOO;DAEWOO
910PEUGEOT;PEUGEOT
920RENAULT;RENAULT
925KIA;KIA
933NISSAN;NISSAN
938PEUGEOT;PEUGEOT
941VOLKSWAGEN;VOLKSWAGEN
942VOLKSWAGEN;VOLKSWAGEN
947CITROEN;CITROEN
950HYUNDAI;HYUNDAI
950JAGUAR LAND ROVER LIMITED;JAGUAR
950OPEL;OPEL
950PEUGEOT;PEUGEOT
955RENAULT;RENAULT
955TOYOTA;TOYOTA
960DACIA;DACIA
970PEUGEOT;PEUGEOT
975RENAULT;RENAULT
980PEUGEOT;PEUGEOT
985CITROEN;CITROEN
985PEUGEOT;PEUGEOT
98FIAT;FIAT
992JEEP;JEEP
995SEAT;SEAT
9FORD;FORD
9G54984449DACIA;DACIA
9LAND ROVER;9LAND ROVER
9OPEL;OPEL
9PEUGEOT;PEUGEOT
9RENAULT;RENAULT
9VOLKSWAGEN;VOLKSWAGEN
A;DIVERS
A BIANCHI;AUTOBIANCHI
A R O;ALFA ROMEO
A ROMEO;ALFA ROMEO
A UDI;AUDI
A. NIKAS S.A;DIVERS
A. RENAULT;RENAULT
A.C.;DIVERS
A.C.L;DIVERS
A.C.M.A.;DIVERS
A.M.C.;DIVERS
A.M.G;MG
A.M.G.;MG
A.ROMEO;ALFA ROMEO
A.ROVER;ROVER
A1AUDI;AUDI
A1CDACIA;DACIA
ÀAUDI;AUDI
ABARTH;ABARTH
ABOURIFORD;FORD
ABRUPEUGEOT;PEUGEOT
AC;DIVERS
AC COBRA;DIVERS
AC-COBRA;DIVERS
ACE;DIVERS
ACIA;DIVERS
ACITROEN;CITROEN
ACL;DIVERS
ACMA;DIVERS
ACREMANN-CITROEN;CITROEN
ACROSS;DIVERS
ACURA;DIVERS
ADESVOLKSWAGEN;VOLKSWAGEN
ADRIA;DIVERS
ADRIA MOBI;DIVERS
ADRIA MOBIL;DIVERS
ADRIA MOBIL/ FIAT;FIAT
ADRIATIK;DIVERS
AFMITSUBISHI;MITSUBISHI
AGHAOPEL;OPEL
AGM;DIVERS
AHORN;DIVERS
AIBMW;BMW
AIESISTEM;DIVERS
AIRSTREAM;DIVERS
AIWAYS;DIVERS
AIXAM;AIXAM
AKVAL;DIVERS
AL FA ROMEO;ALFA ROMEO
AL KO KOBER;DIVERS
AL-KO;DIVERS
AL-KO KOBER AG;DIVERS
AL-KO KOBER AG FIAT;FIAT
AL-KO KOBER AG RENAULT;RENAULT
AL-KO KOBER AG-FIAT;FIAT
AL-KO RENAULT;RENAULT
ALBA;DIVERS
ALF ROMEO;ALFA ROMEO
ALFA;ALFA ROMEO
ALFA  ROMEO;ALFA ROMEO
ALFA MITO;ALFA ROMEO
ALFA ROME;ALFA ROMEO
ALFA ROMEA;ALFA ROMEO
ALFA ROMEO;ALFA ROMEO
ALFA ROMEO1780;ALFA ROMEO
ALFA ROMERO;ALFA ROMEO
ALFA-ROMEO;ALFA ROMEO
ALFAR ROMEO;ALFA ROMEO
ALFAROMEO;ALFA ROMEO
ALFLA ROMEO;ALFA ROMEO
ALFRA ROMEO;ALFA ROMEO
ALFROMEO;ALFA ROMEO
ALKO;DIVERS
ALLIED VEHICLES;DIVERS
ALLIED VEHICLES LTD;DIVERS
ALM;DIVERS
ALPHA ROMEO;ALFA ROMEO
ALPINA;RENAULT
ALPINA DI RENANIA;RENAULT
ALPINE;RENAULT
ALPINE 310;RENAULT
ALPINE FASA;RENAULT
ALPINE MOD;RENAULT
ALPINE R;RENAULT
ALPINE REN;RENAULT
ALPINE RENAULT;RENAULT
ALPINE RLT;RENAULT
ALPINE RNT;RENAULT
ALPINE-REN;RENAULT
ALPINE-RENAULT;RENAULT
ALPINE-RLT;RENAULT
ALPINE.REN;RENAULT
ALPINEA3;RENAULT
ALPINERENA;RENAULT
ALPINERLT;RENAULT
ALPINERT;RENAULT
ALPRENAULT;RENAULT
ALRENAULT;RENAULT
ALTAS;DIVERS
ALVIS;DIVERS
AM GENERAL;DIVERS
AMBROSINIVOLKSWAGEN;VOLKSWAGEN
AMC;JEEP
AMC JEEP;JEEP
AMCITROEN;CITROEN
AMERICAN;DIVERS
AMERICAN COACH;DIVERS
AMF BRUNS;DIVERS
AMG;DIVERS
AMILCAR;DIVERS
ANADOLU ISUZU;ISUZU
ANDOLU ISUZU;ISUZU
ANKAI;DIVERS
ANTCITROEN;CITROEN
ANTONY;DIVERS
APAL;DIVERS
APALVOLKS;VOLKSWAGEN
API CZ;DIVERS
APICZ;DIVERS
APRILIA;APRILIA
APTIS;DIVERS
APTS;DIVERS
AQLFA ROMEO;ALFA ROMEO
ARAUDRENAULT;RENAULT
ARCA;DIVERS
ARCA 2001;DIVERS
ARCADIA;DIVERS
ARCTIC CAT;DIVERS
ARDEN;DIVERS
ARENAULT;RENAULT
ARF;DIVERS
ARIEL;DIVERS
ARIEL ATOM;DIVERS
ARIEL ATOM MUGEN;DIVERS
ARISTOCAT;JAGUAR
ARMSTRONG SIDDELEY;DIVERS
ARNOLT BRISTOL;DIVERS
ARNTZ;DIVERS
ARO;DIVERS
AROBUS;DIVERS
ARTEGA;DIVERS
ASA;DIVERS
ASHLEY;DIVERS
ASIA MOTORS;DIVERS
ASSUZUKI;SUZUKI
ASTON MART;ASTON MARTIN
ASTON MARTIN;ASTON MARTIN
ASTONMARTIN;ASTON MARTIN
ASTRA;OPEL
AU;DIVERS
AUBRUN;DIVERS
AUBURN;DIVERS
AUD;AUDI
AUDI;AUDI
AUDI ;AUDI 
AUDI                                 .;AUDI                                 .
AUDI                       .;AUDI                       .
AUDI  RS5;AUDI                       .
AUDI .           .;AUDI .           .
AUDI AG;AUDI                       .
AUDI ALLEMAGNE;AUDI                       .
AUDI NSU;AUDI                       .
AUDI PORCHE RS2;AUDI                       .
AUDI Q5;AUDI                       .
AUDI QUATTRO;AUDI                       .
AUDI RS;AUDI                       .
AUDI S;AUDI                       .
AUDI.;AUDI                       .
AUDI+++++++++++++++++++++;AUDI                       .
AUDI1309;AUDI                       .
AUDI14;AUDI                       .
AUDI1483;AUDI                       .
AUDI283;AUDI                       .
AUDI80;AUDI                       .
AUDIA3;AUDI                       .
AUDIBRUNET;AUDI                       .
AUDIM;DIVERS
AUDO;DIVERS
AURIOLJAGUAR LAND ROVER LIMITED;LAND ROVER
AURORA;DIVERS
AUSTI N HEALEY;AUSTIN
AUSTIN;AUSTIN
AUSTIN  HEALEY;AUSTIN
AUSTIN HAL;AUSTIN
AUSTIN HEA;AUSTIN
AUSTIN HEALEY;AUSTIN
AUSTIN HEALEY ;AUSTIN
AUSTIN MINI;AUSTIN
AUSTIN MINI MK2;AUSTIN
AUSTIN MINI MOKE;AUSTIN
AUSTIN MORRIS;AUSTIN
AUSTIN ROVER;AUSTIN
AUSTIN VANDEN PLAS;AUSTIN
AUTI;DIVERS
AUTIN CITROEN;CITROEN
AUTIN HEALEY;DIVERS
AUTO RIBEIRO;DIVERS
AUTO SLEEPERS;DIVERS
AUTO STAR;DIVERS
AUTO TRAIL;DIVERS
AUTO TRAIL VR LIMITED;DIVERS
AUTO UNION;DIVERS
AUTO UNION DKW;DIVERS
AUTO-FORM;DIVERS
AUTO-SLEEPERS;DIVERS
AUTO-TRAIL;DIVERS
AUTO-UNION;DIVERS
AUTOBIANCH;AUTOBIANCHI
AUTOBIANCHI;AUTOBIANCHI
AUTOKRAFT;DIVERS
AUTOSTAR;DIVERS
AUTOSTAR FIAT;FIAT
AUTOSTAR U;DIVERS
AUTOUNION;DIVERS
AUUDI;AUDI
AUVERLAND;DIVERS
AUXI;DIVERS
AVANT;DIVERS
AVEURO;DIVERS
AYATS;DIVERS
AYGOTOYOTA;TOYOTA
AZMERCEDES BENZ;MERCEDES
B M  W;BMW
B M W;BMW
B MW;BMW
B-M-W;BMW
B-STYLE & FLEX-I-TRANS;DIVERS
B-STYLE & FLEX-I-TRANS B.V.;DIVERS
B-STYLE ET FLEX-I-TRANS;DIVERS
B.  PEUGEOT;PEUGEOT
B..M.W;BMW
B.M.C;BMC
B.M.C.;BMC
B.M.W;BMW
B.M.W.;BMW
B.M.W. ALPINA;BMW
B.M.W. SERIE1;BMW
B.M.W.M;BMW
B/CERENAULT;RENAULT
BAB BUGGY;DIVERS
BAB-BUGGY;DIVERS
BABBUGGY;DIVERS
BACK DRAFT RACING;DIVERS
BACKDRAFT;DIVERS
BACKDRAFTRACING ;DIVERS
BADACHERENAULT;RENAULT
BAG BUGGY;DIVERS
BAHAMOU OPEL;OPEL
BAILEY;DIVERS
BAILEY CARAVANS;DIVERS
BAILEY OF BRISTOL LTD;DIVERS
BALLOT;DIVERS
BALY;DIVERS
BANHAM;DIVERS
BANISSAN;NISSAN
BAUS AT;DIVERS
BAVARIA;DIVERS
BAVARIA/FIAT;FIAT
BAVARIACAMP;DIVERS
BAYARD;DIVERS
BBBBBBBBBBBBBBBBBBBBBBBBBBBBBBBBBBBBBBBCITROEN;CITROEN
BBR7CF MOD;DIVERS
BBR7CFMOD;DIVERS
BCM;DIVERS
BDR;DIVERS
BDR RACING;DIVERS
BECK;DIVERS
BEDFORD;BEDFORD
BEE BEE;DIVERS
BELGIQUEDACIA;DACIA
BELLIER;BELLIER
BELLRENAULT;RENAULT
BEN KHALEDVOLKSWAGEN;VOLKSWAGEN
BENIMAR;BENIMAR
BENIMAR/FIAT;FIAT
BENJAMIN;DIVERS
BENTLEY;BENTLEY
BERENAULT;RENAULT
BERGADANA;DIVERS
BERGERARDRENAULT;RENAULT
BERKELEY;DIVERS
BERLIET;BERLIET
BERLINGO;BERLINGO
BERRY;DIVERS
BERTONE;DIVERS
BEULAS;DIVERS
BFORD;FORD
BIANCHI;AUTOBIANCHI
BIEMME;DIVERS
BIERMAN;DIVERS
BIGNAN;DIVERS
BILBO'S;DIVERS
BINZ;DIVERS
BIRKIN;DIVERS
BIZZARINI;DIVERS
BKHICHASEAT;SEAT
BLAUGAM;DIVERS
BLMC;DIVERS
BLUCAMP;DIVERS
BLUEBUS;DIVERS
BLUECAR;DIVERS
BM;DIVERS
BM TRACTORS;DIVERS
BM W;BMW
BMC;BMC
BMC215RKD/;BMC
BMV;BMW
BMW;BMW
BMW ;BMW 
BMW                                .;BMW                                .
BMW            .;BMW            .
BMW 318 I;BMW            .
BMW 420D;BMW            .
BMW AG;BMW            .
BMW ALPINA;BMW            .
BMW FRANCE;BMW            .
BMW GLAS;BMW            .
BMW I;BMW            .
BMW M;BMW            .
BMW X5;BMW            .
BMW X6;BMW            .
BMW.;BMW            .
BMW/ALPINA;BMW            .
BMW3/1;BMW            .
BMW5;BMW            .
BMW55;BMW            .
BMWALPINA;BMW            .
BMWB;BMW            .
BMWCR;BMW            .
BMWI;BMW            .
BMWSCHUH;BMW            .
BMX;DIVERS
BMXW;DIVERS
BNC;DIVERS
BOHSE;DIVERS
BOMBARDIER;DIVERS
BOPEL;OPEL
BORGWARD;DIVERS
BOSEAT;DIVERS
BOUCHARSEAT;DIVERS
BOUISSIERERENAULT;RENAULT
BOULENC;DIVERS
BOURKIATOYOTA;TOYOTA
BOUSNANEVOLKSWAGEN;VOLKSWAGEN
BOV;DIVERS
BOVA;DIVERS
BOVA VDL;DIVERS
BOXER;RENAULT
BRABUS;DIVERS
BRASIER;DIVERS
BRAVIA;OPEL
BRE;DIVERS
BREDA MENARINIBUS;DIVERS
BREDAMENARINIBUS;DIVERS
BREINER MASNADARENAULT;RENAULT
BREMACH;DIVERS
BRENAULT;RENAULT
BRIGHTWHEEL L.T.D;DIVERS
BRIGHTWHEEL VIPER;DIVERS
BRIGHTWHEELS;DIVERS
BRIMONT;DIVERS
BRISTOL;DIVERS
BRITISH LEYLAND;DIVERS
BROTHERWOOD;DIVERS
BROTPEUGEOT;PEUGEOT
BRP CAN AM;DIVERS
BRUNO SCHERER ENTREPRISE;DIVERS
BRUNO SCHERER ENTREPRISE (BSE);DIVERS
BRUNO SCHERER ENTREPRISE BSE;DIVERS
BSDMER;DIVERS
BSE;DIVERS
BSH;DIVERS
BUERSTNER;DIVERS
BUFFALO;DIVERS
BUGATTI;BUGATTI
BUGGY;DIVERS
BUIC;BUIC
BUICK;BUICK
BUICK 40VS;BUICK 40VS
BUICKA;BUICKA
BURLINGTON;DIVERS
BURNSTER;DIVERS
BURRSTNER;DIVERS
BURSTBER;DIVERS
BURSTNER;DIVERS
BURSTNER ;DIVERS
BURSTNER G;DIVERS
BURSTNER GMBH;DIVERS
BURSTNZE;DIVERS
BURTSNER;DIVERS
BUS-PRESTIGE;DIVERS
BUSCONCEPT;DIVERS
BUSTNER;DIVERS
BVOLKSWAGEN;VOLKSWAGEN
BWM;BWM
BYD;DIVERS
C I;CITROEN
C ITROEN;CITROEN
C,I,;CITROEN
C?TROEN;CITROEN
C.G;DIVERS
C.I.;DIVERS
CADILLAC;CADILLAC
CADILLAC GMC;CADILLAC
CADILLLAC;CADILLAC
CADOLLAC;CADILLAC
CAETANO;DIVERS
CALLISTA;DIVERS
CAMMANDACIA;DACIA
CAMP AUTOMIBILITE;DIVERS
CAMP AUTOMOBILE;DIVERS
CAMP AUTOMOBILITE;DIVERS
CAMP AUTOMOBILITÉ;DIVERS
CAMPER MONOSCOCCA;DIVERS
CAMPEREVE;DIVERS
CAMPEREVE.;DIVERS
CAMPIJMC;DIVERS
CAN-AM;DIVERS
CAPRON;DIVERS
CAPRON GMBH;DIVERS
CAPRON-CARADO;DIVERS
CAPRON/FORD;FORD
CAPTUR;RENAULT
CAR BUS NET;DIVERS
CAR IND RENAULT;RENAULT
CAR-BUS.NET;DIVERS
CARADO;DIVERS
CARAVAN INTERNATIONAL;DIVERS
CARAVANS;DIVERS
CARAVANS I;DIVERS
CARAVANS INTER;DIVERS
CARAVELAIR;DIVERS
CARAVELLE;DIVERS
CARBODIES;DIVERS
CARBODIES - LONDON TAXIS INTERNATIONAL;DIVERS
CARBODIES FX4;DIVERS
CARBORIES;DIVERS
CARPOL;DIVERS
CARRE GALOPIN;DIVERS
CARRERA SPORSCHE;PORSCHE
CARRIER;DIVERS
CARRIER MAN;DIVERS
CARRIONAUDI;AUDI
CARROSSERIE HESS AG;DIVERS
CARTHAGO;DIVERS
CASAL;DIVERS
CASELANI;DIVERS
CASTERA;DIVERS
CASTROPEUGEOT;PEUGEOT
CATERHAM;DIVERS
CATHAGO;DIVERS
CATHERAM;DIVERS
CATHERHAM;DIVERS
CAZOGIERBMW;BMW
CCCPEUGEOT;PEUGEOT
CD;DIVERS
CECOMP;DIVERS
CEHVROLET;CHEVROLET
CELICA;DIVERS
CENTONI;DIVERS
CG;DIVERS
CHALENCONSKODA;DIVERS
CHALERON;DIVERS
CHALLENDER;RENAULT
CHALLENGER;RENAULT
CHALLENGER.;RENAULT
CHATEAU;DIVERS
CHATEAU CA;DIVERS
CHAUSSON;CITROEN
CHAUSSON /  FIAT;FIAT
CHAUSSON / FIAT;FIAT
CHAUSSON / FORD;FORD
CHAUSSON CITROEN;CITROEN
CHAUSSON/CIROEN;CITROEN
CHAUSSON/CITROEN;CITROEN
CHAUSSON/FIAT;FIAT
CHAUSSON/FORD;FORD
CHAUSSONXCH;DIVERS
CHAUVEL CLAUDE;DIVERS
CHCEVROLET;CHEVROLET
CHENARD ET WALCKER;DIVERS
CHENARD ET WALKER;DIVERS
CHENARD ET WALUKER;DIVERS
CHENARD-WA;DIVERS
CHERVROLET;CHEVROLET
CHEVRELET;CHEVROLET
CHEVRELOT;CHEVROLET
CHEVRO;CHEVROLET
CHEVROLET;CHEVROLET
CHEVROLET ;CHEVROLET 
CHEVROLET CORVETTE;CHEVROLET
DAEWOO;DAEWOO
CHEVROLET G.M;CHEVROLET
CHEVROLET GMC;CHEVROLET
CHEVROLET USA;CHEVROLET
CHEVROLET-CADILLAC;CHEVROLET
CHEVROLET.;CHEVROLET
CHEVROLET1;CHEVROLET
CHEVROLETY;CHEVROLET
CHEVROLLET;CHEVROLET
CHEVRON;DIVERS
CHIMAERA;DIVERS
CHOPEUGEOT;PEUGEOT
CHOUITEPEUGEOT;PEUGEOT
CHREVOLET;CHEVROLET
CHRISLER;CHRISLER
CHRISTIANE;DIVERS
CHRONO;DIVERS
CHRVROLET;CHEVROLET
CHRYLSLER;CHRYSLER
CHRYSKER;CHRYSLER
CHRYSLEER;CHRYSLER
CHRYSLER;CHRYSLER
CHRYSLER DODGE;CHRYSLER
CHRYSLER SIMCA;CHRYSLER
CHRYSLER VIPER;CHRYSLER
CHRYSLER.;CHRYSLER
CHRYSLERM;CHRYSLER
CHTYSLER;CHRYSLER
CHYSLER;CHRYSLER
CI;DIVERS
CI CARAVANS;DIVERS
CI TROEN;CITROEN
CIITROEN;CITROEN
CIN;DIVERS
CIROEN;CITROEN
CIRTOEN;CITROEN
CIT;DIVERS
CIT MESSAG;DIVERS
CITGROEN;CITROEN
CITOEN;CITROEN
CITOREN;CITROEN
CITR;CITROEN
CITREIN;DIVERS
CITREN;CITROEN
CITREOEN;CITROEN
CITREON;CITROEN
CITRO;CITROEN
CITROAEN;CITROEN
CITROE;CITROEN
CITROEM;CITROEN
CITROEM%;CITROEN
CITROEN;CITROEN
CITROÊN;CITROEN
CITROËN;CITROEN
CITRÖEN;CITROEN
CÎTROEN;CITROEN
CÏTROEN;CITROEN
CITROEN ;CITROEN 
CITROEN  ;CITROEN  
CITROEN   MOOVEO;CITROEN
CITROEN  C;CITROEN
CITROEN - FLEURETTE;CITROEN
CITROEN /;CITROEN
CITROEN / CHALLENGER;CITROEN
CITROEN / CHAUSS;CITROEN
CITROEN / FLEURETTE;CITROEN
CITROEN / MOOVEO;CITROEN
CITROEN / RAPIDO;CITROEN
CITROEN ADRIA;CITROEN
CITROEN AUTOMOBILS MISSE;CITROEN
CITROEN BRUXELLES;CITROEN
CITROEN C1;CITROEN
CITROEN C4;CITROEN
CITROEN CH;CITROEN
CITROEN DANGEL;CITROEN
CITROEN DS;CITROEN
CITROEN ESPAGNE;CITROEN
CITROEN FL;CITROEN
CITROEN FLEURETE;CITROEN
CITROEN FLEURETTE;CITROEN
CITROËN FLEURETTE;CITROEN
CITROEN FRANCE;CITROEN
CITROEN MADRID;CITROEN
CITROEN MOD - VOISIN 4X4;CITROEN
CITROEN MOD VOISIN;CITROEN
CITROEN MOD VOISIN 4X4;CITROEN
CITROEN PILOTE;CITROEN
CITROËN RAPIDO;CITROEN
CITROEN TR;CITROEN
CITROEN-CH;CITROEN
CITROEN-FLEURETTE;CITROEN
CITROEN-POSSL;CITROEN
CITROEN-RA;CITROEN
CITROEN.;CITROEN
CITROEN/;CITROEN
CITROEN/AU;CITROEN
CITROEN/AUTOSTAR;CITROEN
CITROEN/BA;CITROEN
CITROEN/BAVARIA;CITROEN
CITROEN/CH;CITROEN
CITROEN/CHALLE;CITROEN
CITROEN/CHALLENGE;CITROEN
CITROEN/CHALLENGER;CITROEN
CITROËN/CHALLENGER;CITROEN
CITROEN/CHAUSS;CITROEN
CITROEN/CHAUSSON;CITROEN
CITROEN/CL;CITROEN
CITROEN/CS;CITROEN
CITROEN/FLEURETTE;CITROEN
CITROEN/HY;CITROEN
CITROEN/MO;CITROEN
CITROEN/MOOVEO;CITROEN
CITROEN/PI;CITROEN
CITROEN/PILOTE;CITROEN
CITROEN/POESSL;CITROEN
CITROEN/RA;CITROEN
CITROEN/RAPIDO;CITROEN
CITROEN0;CITROEN
CITROEN112;CITROEN
CITROEN126;CITROEN
CITROEN1375;CITROEN
CITROEN3;CITROEN
CITROEN5;CITROEN
CITROEN7;CITROEN
CITROEN900;CITROEN
CITROENA;CITROEN
CITROENAC4;CITROEN
CITROENCITROEN;CITROEN
CITROENCORSON;CITROEN
CITROENCROUTELLE;CITROEN
CITROENDESCHAMPS;CITROEN
CITROENE;CITROEN
CITROENFLEURETTE;CITROEN
CITROENM;CITROEN
CITROENM1;CITROEN
CITROENM10CTRVP0040564;CITROEN
CITROENMAZEL;CITROEN
CITROENMCT;CITROEN
CITROENMOD;CITROEN
CITROENN;CITROEN
CITROËNN;CITROEN
CITROENN2CA;CITROEN
CITROENU10CTRVP016R604;CITROEN
CITROENX;CITROEN
CITROEON;CITROEN
CITROIEN;CITROEN
CITRON;CITROEN
CITRONE;CITROEN
CITRORN;CITROEN
CITRROEN;CITROEN
CITTOEN;CITROEN
CITTROEN;CITROEN
CITTROEN/CHALLENGER;CITROEN
CITY-VAN;DIVERS
CJEVROLET;CHEVROLET
CLAISSEVOLKSWAGEN;VOLKSWAGEN
CLAUDEL;DIVERS
CLEMENT BA;DIVERS
CLEMENT BAYARD;DIVERS
CLENET;DIVERS
CLIO;RENAULT
CM;DIVERS
CMC MERZ;MERCEDES
CMS AUTO;MERCEDES
CMS AUTO / MERCEDES-BENZ;MERCEDES
CNISSAN;NISSAN
COACHMAN CARAVANS;DIVERS
COACHMEN;DIVERS
COBRA;FORD
COBRA REPLICA;FORD
COBUS;DIVERS
COIRATONRENAULT;RENAULT
COLKSWAGEN;COLKSWAGEN
COLLETOYOTA;TOYOTA
COMAN;DIVERS
CONCORDE;DIVERS
CORD;DIVERS
CORRE;DIVERS
CORSA;DIVERS
CORVETTE;DIVERS
COSTE;DIVERS
COTE D AZUR;DIVERS
COTROEN;CITROEN
COURNIL;DIVERS
CPEUGEOT;PEUGEOT
CRAFTER;DIVERS
CRD CAR RESEARCH & DEVELOPMENT GMBH & CO KG;DIVERS
CREDIPAR;DIVERS
CRENAULT;RENAULT
CRENDON;DIVERS
CRISTALL;DIVERS
CRITROEN FLEURETTE;CITROEN
CROSRENAULT;RENAULT
CROSSWAY;DACIA
CRRC;DIVERS
CS;DIVERS
CS-REISEMOBILE;DIVERS
CTI;DIVERS
CTIROEN;CITROEN
CTROEN;CITROEN
CUBHY6;DIVERS
CUBY;DIVERS
CUILLIRENAULT;RENAULT
CUPRA;DIVERS
CUTROEN;CITROEN
CVOLKSWAGEN;VOLKSWAGEN
CVPEUGEOT;PEUGEOT
CVRENAULT;RENAULT
CWC;DIVERS
D.A.F;DIVERS
D.A.F.;DIVERS
D.B.;DIVERS
D.S;DS
D*SIGN;DIVERS
DA;DIVERS
DAC;DIVERS
DACI;DACIA
DACIA;DACIA
DACIA-ROMTURINGIA;DACIA
DACIAHSD;DACIA
DADCIA;DACIA
DADIA;DACIA
DADILLAC;DIVERS
DAELIM;DIVERS
DAEWOD;DAEWOO
DAEWOO;DAEWOO
DAEWOO-FSO;DAEWOO
DAEWWOO;DAEWOO
DAF;DIVERS
DAHATSU;DAHIATSU
DAHIATSU;DAHIATSU
DAI;DAI
DAIA;DACIA
DAICA;DACIA
DAICIA;DACIA
DAIHATSU;DAIHATSU
DAIHATSU60+75;DAIHATSU
DAIMER CHRYSLER;DAIMLER
DAIML BENZ;DAIMLER
DAIMLER;DAIMLER
DAIMLER B;DAIMLER
DAIMLER BE;DAIMLER
DAIMLER BENZ;DAIMLER
DAIMLER CHRYSLER;DAIMLER
DAIMLER CHRYSLER/HYMER;DAIMLER
DAIMLER-BENZ;DAIMLER
DAIMLERCHRYSLER;DAIMLER
DAIMLERCHRYSLER AG MB211;DAIMLER
DAIMLERCHRYSLER/;DAIMLER
DAIMLERCHRYSLER/NIESMANN+BISCH;DAIMLER
DAIMLERCHYSLER;DAIMLER
DAITHATSU;DAITHATSU
DAKAR KIT;DIVERS
DALLARA;DIVERS
DAMEZPEUGEOT;PEUGEOT
DANBURY;DIVERS
DANGEL;DIVERS
DARCIA;DACIA
DARMONT;DIVERS
DASTSUN;DATSUN
DASTUN;DASTUN
DATSUN;DATSUN
DAVCIA;DIVERS
DAVID BROWN;DIVERS
DAX;DAX
DAX TOJEIRO;DAX TOJEIRO
DB;DIVERS
DCIA;DACIA
DE DION;DE DION
DE DION BOUTON;DE DION
DE DION-BOUTON;DE DION
DE FREMOND;DIVERS
DE LA CHAPELLE;DIVERS
DE LOREAN;DE LOREAN
DE LOREAN DMC;DE LOREAN
DE REU;DIVERS
DE ROVIN;DIVERS
DE SOTO;DIVERS
DE TOMASO;DIVERS
DEAT;SEAT
DECITROEN;CITROEN
DEFENDER;NISSAN
DEFOISPEUGEOT;PEUGEOT
DELAGE;DIVERS
DELAHAYE;DIVERS
DELAUGERE;DIVERS
DELAUGERE ET CLAYETTE;DIVERS
DELAVOLKSWAGEN;VOLKSWAGEN
DELOPEL;OPEL
DELOREAN;DE LOREAN
DELTA;DIVERS
DEMICO;DIVERS
DENISSAN;NISSAN
DEON;DIVERS
DERBI;DIVERS
DERBY;DIVERS
DERCITROEN;CITROEN
DERCKS;DIVERS
DERENAULT;RENAULT
DESCITROEN;CITROEN
DESOTO;DESOTO
DETHLEFFS;DETHLEFFS
DETHLEFFS FIAT;FIAT
DETHLEFFS.;DETHLEFFS.
DETHLEFFSN;DETHLEFFSN
DETLEFFS;DETLEFFS
DETOMASO;DETOMASO
DETRETPEUGEOT;PEUGEOT
DEUTSCH BONNET;DEUTSCH BONNET
DEVES;DEVES
DEVIN;DEVIN
DEVIN PANHARD;DEVIN PANHARD
DFP;DFP
DFSK;DFSK
DIAC LOCATION;DIAC LOCATION
DIACIA;DIACIA
DIAHATSU;DIAHATSU
DIALORENAULT;RENAULT
DIAMOND;DIAMOND
DIETRICH CAREBUS;DIETRICH CAREBUS
DIETRICH VEHICULES;DIETRICH VEHICULES
DIGUE;DIGUE
DIJEAU CARROSSIER;DIJEAU CARROSSIER
DINALPIN;DINALPIN
DINO;DINO
DJ16WS61W0;DJ16WS61W0
DKW;DKW
DOCITROEN;CITROEN
DODGE;DODGE
DODGE.;DODGE.
DOGE;DOGE
DOGEBOS;DOGEBOS
DONKERVOOR;DONKERVOOR
DONKERVOORT;DONKERVOORT
DONNET;DONNET
DONNET ZEDEL;DONNET ZEDEL
DPEUGEOT;PEUGEOT
DR;DR
DRB SPORTS CARS AUSTRALIA;DRB SPORTS CARS AUSTRALIA
DRE MALRAUX CITROEN;CITROEN
DREAM;DREAM
DREAMER;DREAMER
DROGMOLLER;DROGMOLLER
DROUVILLE;DROUVILLE
DS;DS
DS.;DS.
DS3;DS3
DSFOPEL;OPEL
DSSSSRRMAZDA;DSSSSRRMAZDA
DSUZUKI;DSUZUKI
DTOYOTA;TOYOTA
DUCATI;DUCATI
DUCATO;DUCATO
DUCITROEN;CITROEN
DUMAISPEUGEOT;PEUGEOT
DUOPEUGEOT;PEUGEOT
DUPONTRPEUGEOT;PEUGEOT
DURENAULT;RENAULT
DURISOTTI;DURISOTTI
DUSTER;DUSTER
DUTTON;DUTTON
È-RENAULT;RENAULT
E.R.A;E.R.A
E2*2001/116*0363*06;E2*2001/116*0363*06
E250MERCEDES;E250MERCEDES
EAGLE;EAGLE
EARNHEART;EARNHEART
EBO;EBO
EBRO;EBRO
EBS;EBS
EBUSCO;EBUSCO
ECHRYSLER;ECHRYSLER
ECITROEN;CITROEN
ÈCITROEN;CITROEN
EDIRENAULT;RENAULT
EDSEL;EDSEL
EDSEL FORD;FORD
EERENAULT;RENAULT
EHVOLKSWAGEN AG;VOLKSWAGEN AG
EL;EL
EL BOUDATIPEUGEOT;PEUGEOT
EL FORD;FORD
ELIOS;ELIOS
ELNACH;ELNACH
ELNAGH;ELNAGH
ELPEUGEOT;PEUGEOT
EMIMERCEDES BENZ;MERCEDES
ENAULT;ENAULT
ENVEMO;ENVEMO
EOPEL;OPEL
EOS COACH;EOS COACH
EOSCOACH;EOSCOACH
EOSVOLLKSWAGEN;EOSVOLLKSWAGEN
EPEUGEOT;PEUGEOT
EQUI-TREK LTD;EQUI-TREK LTD
ERA;ERA
ERCEDES B;ERCEDES B
ERENAULT;RENAULT
ERENER;ERENER
ERIBA;ERIBA
ERWIN HYMER GROUP UK LTD;ERWIN HYMER GROUP UK LTD
ESCORT;ESCORT
ESCPEUGEOT;PEUGEOT
ESSEX;ESSEX
ESSEX TERRAPLANE;ESSEX TERRAPLANE
ESTEREL;ESTEREL
ETRUSCO;ETRUSCO
ETTORE BUGATTI;ETTORE BUGATTI
EUGEOT;EUGEOT
EURA MOBIL;EURA MOBIL
EURAMOBIL;EURAMOBIL
EUROCKA;EUROCKA
EVERETT MORRISON;EVERETT MORRISON
EVM;EVM
EVM LIMITED;EVM LIMITED
EXCALIBUR;EXCALIBUR
F O R D;F O R D
F VEGA;F VEGA
F.S.O.;F.S.O.
F0RD;F0RD
F15DD02;F15DD02
F15DD04;F15DD04
FAAM;FAAM
FAC EL VEGA;FAC EL VEGA
FACEL;FACEL
FACEL VEGA;FACEL VEGA
FACELVEGA;FACELVEGA
FACTORY FIVE;FACTORY FIVE
FAIT;FAIT
FAIT / ADRIA MOBIL;FAIT / ADRIA MOBIL
FASA RENAULT;RENAULT
FAST;FAST
FAST CONCEPT CAR;FAST CONCEPT CAR
FAVREFIAT;FIAT
FCC;FCC
FCITROEN;CITROEN
FDCITROEN;CITROEN
FENDT;FENDT
FENDT-CARAVAN;FENDT-CARAVAN
FENIKSBUS;FENIKSBUS
FERQUI;FERQUI
FERRARI;FERRARI
FERRARI F1;FERRARI F1
FERRARIGT;FERRARIGT
FERRARRI;FERRARRI
FERVES;FERVES
FFIAT;FIAT
FFORD;FORD
FFR;FFR
FIA;FIA
FIA /NIESMANN BISCHOFF;FIA /NIESMANN BISCHOFF
FIA/WESTFALIA;FIA/WESTFALIA
FIA1395;FIA1395
FIAAT;FIAAT
FIAR;FIAR
FIAT;FIAT
FIAT ;FIAT 
FIAT                                 .;FIAT                                 .
FIAT                       .;FIAT                       .
FIAT - LATERAL DESIGN CONCEPTS LTD;FIAT - LATERAL DESIGN CONCEPTS LTD
FIAT / ADR;FIAT / ADR
FIAT / ADRIA MOBIL;FIAT / ADRIA MOBIL
FIAT / BAVARIA;FIAT / BAVARIA
FIAT / CHA;FIAT / CHA
FIAT / CHALLENGER;FIAT / CHALLENGER
FIAT / CHAUSSON;FIAT / CHAUSSON
FIAT / MOBILVETTA;FIAT / MOBILVETTA
FIAT / PILOTE;FIAT / PILOTE
FIAT /CHAUSSON;FIAT /CHAUSSON
FIAT ABARTH;FIAT ABARTH
FIAT ADRIA MOBIL;FIAT ADRIA MOBIL
FIAT AUTOMOBILE;FIAT AUTOMOBILE
FIAT AUTOMOBILES;FIAT AUTOMOBILES
FIAT AUTOSTAR;FIAT AUTOSTAR
FIAT BAVAR;FIAT BAVAR
FIAT BAVARIA;FIAT BAVARIA
FIAT CHALL;FIAT CHALL
FIAT CHALLENGER;FIAT CHALLENGER
FIAT CHAUS;FIAT CHAUS
FIAT CHAUSSON;FIAT CHAUSSON
FIAT DETHL;FIAT DETHL
FIAT DUCATO;FIAT DUCATO
FIAT DUVATO;FIAT DUVATO
FIAT EUROPE;FIAT EUROPE
FIAT FIFTY FIFE 55;FIAT FIFTY FIFE 55
FIAT FLEURETTE;FIAT FLEURETTE
FIAT FONT;FIAT FONT
FIAT FONT VENDOME;FIAT FONT VENDOME
FIAT FR;FIAT FR
FIAT FRANCE;FIAT FRANCE
FIAT GROUPES AUTOMOBILES;FIAT GROUPES AUTOMOBILES
FIAT HYMER;FIAT HYMER
FIAT ITALIE;FIAT ITALIE
FIAT KNAUS;FIAT KNAUS
FIAT LO;FIAT LO
FIAT LOMBARDI;FIAT LOMBARDI
FIAT MC LOUIS;FIAT MC LOUIS
FIAT MCLOUIS;FIAT MCLOUIS
FIAT MOBILVETTA;FIAT MOBILVETTA
FIAT MOOVEO ;FIAT MOOVEO 
FIAT PA;FIAT PA
FIAT PILOT;FIAT PILOT
FIAT PILOTE;FIAT PILOTE
FIAT RAPID;FIAT RAPID
FIAT RAPIDO;FIAT RAPIDO
FIAT SIMCA;FIAT SIMCA
FIAT SOMECA;FIAT SOMECA
FIAT-ADRIA;FIAT-ADRIA
FIAT-CHALLENGER;FIAT-CHALLENGER
FIAT-FLEUR;FIAT-FLEUR
FIAT-FLEURETTE;FIAT-FLEURETTE
FIAT-NIESMANN+BISCHOFF;FIAT-NIESMANN+BISCHOFF
FIAT-PILOTE;FIAT-PILOTE
FIAT.;FIAT.
FIAT/;FIAT/
FIAT/ BAVARIA;FIAT/ BAVARIA
FIAT/ BURSTNER;FIAT/ BURSTNER
FIAT/ CHALLENGER;FIAT/ CHALLENGER
FIAT/ CHAUSSON;FIAT/ CHAUSSON
FIAT/ MOBILVETTA;FIAT/ MOBILVETTA
FIAT/ADRIA;FIAT/ADRIA
FIAT/ADRIA MOBIL;FIAT/ADRIA MOBIL
FIAT/AGUTI;FIAT/AGUTI
FIAT/AUTO-TRAIL;FIAT/AUTO-TRAIL
FIAT/AUTOS;FIAT/AUTOS
FIAT/AUTOSTAR;FIAT/AUTOSTAR
FIAT/BAVAR;FIAT/BAVAR
FIAT/BAVARIA;FIAT/BAVARIA
FIAT/BENIM;FIAT/BENIM
FIAT/BENIMAR;FIAT/BENIMAR
FIAT/BÜRSTNER;FIAT/BÜRSTNER
FIAT/CARTH;FIAT/CARTH
FIAT/CARTHAGO;FIAT/CARTHAGO
FIAT/CHALL;FIAT/CHALL
FIAT/CHALLENGE;FIAT/CHALLENGE
FIAT/CHALLENGER;FIAT/CHALLENGER
FIAT/CHAUS;FIAT/CHAUS
FIAT/CHAUSSON;FIAT/CHAUSSON
FIAT/CITY-;FIAT/CITY-
FIAT/CITY-VAN;FIAT/CITY-VAN
FIAT/CITY/VAN;FIAT/CITY/VAN
FIAT/CONCORDE;FIAT/CONCORDE
FIAT/DETHL;FIAT/DETHL
FIAT/DETHLEFFS;FIAT/DETHLEFFS
FIAT/DUCATO;FIAT/DUCATO
FIAT/FLEURETTE;FIAT/FLEURETTE
FIAT/FONT VENDOME;FIAT/FONT VENDOME
FIAT/HANROAD;FIAT/HANROAD
FIAT/HOBBY;FIAT/HOBBY
FIAT/HYMER;FIAT/HYMER
FIAT/ITINEO;FIAT/ITINEO
FIAT/LE VOYAGEUR;FIAT/LE VOYAGEUR
FIAT/MC LOUIS;FIAT/MC LOUIS
FIAT/MOBILVETTA;FIAT/MOBILVETTA
FIAT/MOOVE;FIAT/MOOVE
FIAT/MOOVEO;FIAT/MOOVEO
FIAT/NIESM;FIAT/NIESM
FIAT/NIESMANN;FIAT/NIESMANN
FIAT/NIESMANN BISCHOFF;FIAT/NIESMANN BISCHOFF
FIAT/NIESMANN/BISCHOFF;FIAT/NIESMANN/BISCHOFF
FIAT/NIESMANN+BISCHOFF;FIAT/NIESMANN+BISCHOFF
FIAT/PIILOTE;FIAT/PIILOTE
FIAT/PILOT;FIAT/PILOT
FIAT/PILOTE;FIAT/PILOTE
FIAT/RAPID;FIAT/RAPID
FIAT/RAPIDO;FIAT/RAPIDO
FIAT/SUNLIGHT;FIAT/SUNLIGHT
FIAT/TRIGANO;FIAT/TRIGANO
FIAT/TRIGANO SPA;FIAT/TRIGANO SPA
FIAT/TRIPOD;FIAT/TRIPOD
FIAT+;FIAT+
FIAT0;FIAT0
FIAT1729;FIAT1729
FIAT434;FIAT434
FIAT500X;FIAT500X
FIAT790;FIAT790
FIATAUTO SPA;FIATAUTO SPA
FIATB;FIATB
FIATBA;FIATBA
FIATF;FIATF
FIATX DE;FIATX DE
FIBERFAB;FIBERFAB
FIERO F;FIERO F
FIESTA;FIESTA
FIIAT;FIIAT
FILLONFIAT;FIAT
FIMT;FIMT
FISCHERNISSAN;NISSAN
FISKER;FISKER
FLEETWOOD;FLEETWOOD
FLEURETTE;FLEURETTE
FLEURETTE FLORIUM;FLEURETTE FLORIUM
FLORIUM;FLORIUM
FNISSAN;NISSAN
FOARD;FOARD
FOD;FOD
FOFORD;FORD
FONT VENDOME;FONT VENDOME
FONT VENDOME / FIAT;FIAT
FONT VENDOME/FIAT;FIAT
FONT-VENDOME;FONT-VENDOME
FONTA;FONTA
FOR;FOR
FOR1558;FOR1558
FORD;FORD
FORD ;FORD 
FORD / AUTOSTAR;FORD / AUTOSTAR
FORD / CHA;FORD / CHA
FORD / CHALLENGER;FORD / CHALLENGER
FORD / CHAUSSON;FORD / CHAUSSON
FORD /CHAUSSON;FORD /CHAUSSON
FORD /TRIGANO;FORD /TRIGANO
FORD ANGL.;FORD ANGL.
FORD ANGLI;FORD ANGLI
FORD ANGLIA;FORD ANGLIA
FORD AUTOS;FORD AUTOS
FORD CAMP AUTOMOBILE;FORD CAMP AUTOMOBILE
FORD CAMP AUTOMOBILITE;FORD CAMP AUTOMOBILITE
FORD CAPRI;FORD CAPRI
FORD CAV;FORD CAV
FORD CEE;FORD CEE
FORD CHALL;FORD CHALL
FORD CHALLENGER;FORD CHALLENGER
FORD CHAUS;FORD CHAUS
FORD CHAUSSON;FORD CHAUSSON
FORD CNG TECHNIK;FORD CNG TECHNIK
FORD DETHLEFFS;FORD DETHLEFFS
FORD ESCORT;FORD ESCORT
FORD FFR;FORD FFR
FORD FR;FORD FR
FORD GB;FORD GB
FORD GTD;FORD GTD
FORD LINCOLN;FORD LINCOLN
FORD MAVER;FORD MAVER
FORD MAVERICK;FORD MAVERICK
FORD MESSA;FORD MESSA
FORD MOTOR;FORD MOTOR
FORD MOTORS;FORD MOTORS
FORD MUSTANG;FORD MUSTANG
FORD PILGRIM;FORD PILGRIM
FORD RIMOR;FORD RIMOR
FORD SALEEN;FORD SALEEN
FORD SHELBY;FORD SHELBY
FORD SPECIAL;FORD SPECIAL
FORD SPF;FORD SPF
FORD SUNSE;FORD SUNSE
FORD TORPEDO;FORD TORPEDO
FORD TRANS;FORD TRANS
FORD US;FORD US
FORD USA;FORD USA
FORD WERKE AG;FORD WERKE AG
FORD WERKE GMBH;FORD WERKE GMBH
FORD-CNG-TECHNIK;FORD-CNG-TECHNIK
FORD-GNC-TECHNIK;FORD-GNC-TECHNIK
FORD-MERKE;FORD-MERKE
FORD.;FORD.
FORD/AUTOS;FORD/AUTOS
FORD/AUTOSTAR;FORD/AUTOSTAR
FORD/CARADO;FORD/CARADO
FORD/CHALL;FORD/CHALL
FORD/CHALLANGER;FORD/CHALLANGER
FORD/CHALLENGER;FORD/CHALLENGER
FORD/CHAUS;FORD/CHAUS
FORD/CHAUSSON;FORD/CHAUSSON
FORD/DAX;FORD/DAX
FORD/GENESIS;FORD/GENESIS
FORD/HOBBY;FORD/HOBBY
FORD/HYMER;FORD/HYMER
FORD/KVA;FORD/KVA
FORD/LINCOLN;FORD/LINCOLN
FORD0;FORD0
FORD1077;FORD1077
FORD1108;FORD1108
FORD1136;FORD1136
FORD²;FORD²
FORD5;FORD5
FORDALL;FORDALL
FORDCHALLE;FORDCHALLE
FORDE;FORDE
FORDFE;FORDFE
FORDM;FORDM
FORDMAVERI;FORDMAVERI
FORDMFD1132EA491;FORDMFD1132EA491
FORDP8EM;FORDP8EM
FORDSON;FORDSON
FORDT82 H;FORDT82 H
FORDU;FORDU
FORDUSA;FORDUSA
FORDW;FORDW
FOREST RIVER;FOREST RIVER
FORF;FORF
FORG;FORG
FORRD;FORRD
FORSTER;FORSTER
FORT;FORT
FOTON;FOTON
FOUR WINDS;FOUR WINDS
FOURNEUILRENAULT;RENAULT
FOURNIER-MARCADIER;FOURNIER-MARCADIER
FPEUGEOT;PEUGEOT
FPRD;FPRD
FRAKLIN;FRAKLIN
FRANKIA;FRANKIA
FRANKIA MB;FRANKIA MB
FRANKIA-RMB;FRANKIA-RMB
FREELANDER;FREELANDER
FREIGHT LINER;FREIGHT LINER
FREIGHTLEINER;FREIGHTLEINER
FREIGHTLINER;FREIGHTLINER
FRENAULT;RENAULT
FRIAT;FRIAT
FRRENAULT;RENAULT
FSM;FSM
FSM LI FI;FSM LI FI
FSM/FIAT;FIAT
FSMFIAT;FIAT
FUNKE ET WILL;FUNKE ET WILL
FUSO;FUSO
FVERNIMMEN;FVERNIMMEN
FVOLKSWAGEN;VOLKSWAGEN
FYA61SMT;FYA61SMT
G IRAT;G IRAT
G.M.C.;G.M.C.
G.M.E;G.M.E
G.M.E.;G.M.E.
GAC;GAC
GAENGMERCEDES BENZ;MERCEDES
GALIJEAN;GALIJEAN
GAMBILLONFIAT;FIAT
GARNISSAN;NISSAN
GARRENAULT;RENAULT
GARROS BAT ZCITROEN;CITROEN
GATEAU;GATEAU
GAZ;GAZ
GAZELLE;GAZELLE
GBS;GBS
GENERAL;GENERAL
GENERAL MO;GENERAL MO
GENERAL MOT -GMC;GENERAL MOT -GMC
GENERAL MOT-GMC;GENERAL MOT-GMC
GENERAL MOTORS;GENERAL MOTORS
GENERAL MOTORS ITALIA;GENERAL MOTORS ITALIA
GENERALMOT;GENERALMOT
GENERIC MOTORS;GENERIC MOTORS
GENESTIN;GENESTIN
GENIOS/MB SPRINTER;GENIOS/MB SPRINTER
GENTRY;GENTRY
GEORGE ET JACQUES;GEORGE ET JACQUES
GEORGES IRAT;GEORGES IRAT
GEOT;GEOT
GEPEBUS;GEPEBUS
GHCITROEN;CITROEN
GHIA;GHIA
GIFA;GIFA
GIFACOLLET;GIFACOLLET
GILERA;GILERA
GINETTA;GINETTA
GIOPEL;OPEL
GIOTTILINE;GIOTTILINE
GLAS;GLAS
GLENAN CONCEPT CARS;GLENAN CONCEPT CARS
GLOBE-TRAVELLER;GLOBE-TRAVELLER
GLOBECAR;GLOBECAR
GM;GM
GM COACHWORK;GM COACHWORK
GM CORP;GM CORP
DAEWOO;DAEWOO
GMC;GMC
GMC EXPLORER VAN;GMC EXPLORER VAN
GMC/TRUCK;GMC/TRUCK
GME;GME
GMODC;GMODC
GN;GN
GN SALMSON;GN SALMSON
GNOME ET RHONE;GNOME ET RHONE
GO PEUGEOT;PEUGEOT
GOLF;GOLF
GOLF VI;GOLF VI
GOLFSTREAM;GOLFSTREAM
GOLFVOLKSWAGEN;VOLKSWAGEN
GOUILLARTVOLVO;GOUILLARTVOLVO
GOUPIL;GOUPIL
GP;GP
GRAND VITARA;GRAND VITARA
GRANDIN;GRANDIN
GRASTEVOLKSWAGEN;VOLKSWAGEN
GRIFFET;GRIFFET
GRIFFITH;GRIFFITH
GRIGANO;GRIGANO
GRIGORYANRENAULT;RENAULT
GROSSINPEUGEOT;PEUGEOT
GRUAU;GRUAU
GRUAU MICROBUS;GRUAU MICROBUS
GTD;GTD
GTF INNOVATIONS;GTF INNOVATIONS
GTM;GTM
GTOYOTA;TOYOTA
GUILLONCITROEN;CITROEN
GULERYUZ;GULERYUZ
GULFSTREAM;GULFSTREAM
GULSTREAM;GULSTREAM
GUMPERT;GUMPERT
GVOLKSWAGEN;VOLKSWAGEN
GVOLVO;GVOLVO
H E;H E
HAANISSAN;NISSAN
HABERMACHER JEAN CLAUDE;HABERMACHER JEAN CLAUDE
HAIHATSU;HAIHATSU
HAKIA;HAKIA
HANROAD;HANROAD
HARLEY.DAV;HARLEY.DAV
HARTFORD;FORD
HARTGE;HARTGE
HAULIEZ BUS;HAULIEZ BUS
HAWK;HAWK
HAWK 289;HAWK 289
HECHTPEUGEOT;PEUGEOT
HERITAGE;HERITAGE
HERPEUGEOT;PEUGEOT
HESS;HESS
HEUILEZ BU;HEUILEZ BU
HEULIEZ;HEULIEZ
HEULIEZ  BUS;HEULIEZ  BUS
HEULIEZ B US;HEULIEZ B US
HEULIEZ BU;HEULIEZ BU
HEULIEZ BUD;HEULIEZ BUD
HEULIEZ BUS;HEULIEZ BUS
HEULIEZ BUS ;HEULIEZ BUS 
HEULIEZ BUZ;HEULIEZ BUZ
HEULIEZBUS;HEULIEZBUS
HEULIIEZ;HEULIIEZ
HEULLIEZ BUS;HEULLIEZ BUS
HEURLIEZ B;HEURLIEZ B
HHYUNDAI;HHYUNDAI
HIGER;HIGER
HILLMAN;HILLMAN
HISPANO-SUIZA;HISPANO-SUIZA
HITCHKISS;HITCHKISS
HMC;HMC
HNISSAN;NISSAN
HOBBY;HOBBY
HOBBYCAR;HOBBYCAR
HOLIDAY RAMBLER;HOLIDAY RAMBLER
HOLLIDAY RAMBLER;HOLLIDAY RAMBLER
HOME CAR;HOME CAR
HOMMELL;HOMMELL
HONADA;HONADA
HOND;HOND
HOND MOTO;HOND MOTO
HONDA;HONDA
HONDA ;HONDA 
HONDA EUROPE;HONDA EUROPE
HONDA FRANCE;HONDA FRANCE
HONDA.;HONDA.
HONDA00;HONDA00
HONDA14;HONDA14
HORSCH;HORSCH
HORSCH LEEB;HORSCH LEEB
HOTCHISS;HOTCHISS
HOTCHKIN WILLYS;HOTCHKIN WILLYS
HOTCHKISS;HOTCHKISS
HOTCHKISS BRANDT;HOTCHKISS BRANDT
HOTCHKISS WILLY;HOTCHKISS WILLY
HOTCHKISS WILLYS;HOTCHKISS WILLYS
HOTCKISS;HOTCKISS
HOTHKISS;HOTHKISS
HPEUGEOT;PEUGEOT
HRENAULT;RENAULT
HUDSON;HUDSON
HUELIEZ BU;HUELIEZ BU
HUGOTRENAULT;RENAULT
HULIEZ BUS;HULIEZ BUS
HUMBER;HUMBER
HUMMER;HUMMER
HUMMER GM;HUMMER GM
HUMMER H2;HUMMER H2
HUNDAI;HUNDAI
HUNDAY;HUNDAY
HUREL;HUREL
HURENAULT;RENAULT
HUSQVARNA;HUSQVARNA
HUYNDAI;HUYNDAI
HUYNDAI MOTOR;HUYNDAI MOTOR
HY-MOTO;HY-MOTO
HYMER;HYMER
HYMER / FIAT;FIAT
HYMER FORD;FORD
HYMER-FIAT;FIAT
HYMER/CIT;HYMER/CIT
HYMER/CITR;HYMER/CITR
HYMER/CITROEN;CITROEN
HYMER/FIAT;FIAT
HYMER/FIAT ;FIAT 
HYMER/FIMT;HYMER/FIMT
HYMER/FORD;FORD
HYMERMOBIL;HYMERMOBIL
HYNDAI;HYNDAI
HYNUDAI;HYNUDAI
HYU;HYU
HYUDAI;HYUDAI
HYUDAI  MOTOR;HYUDAI  MOTOR
HYUN;HYUN
HYUNDA;HYUNDA
HYUNDAI;HYUNDAI
HYUNDAÏ;HYUNDAÏ
HYUNDÄI;HYUNDÄI
HYUNDAI GENERAL MANAGER;HYUNDAI GENERAL MANAGER
HYUNDAI MOTO;HYUNDAI MOTO
HYUNDAI MOTOR;HYUNDAI MOTOR
HYUNDAI(;HYUNDAI(
HYUNDAI10;HYUNDAI10
HYUNDAI152;HYUNDAI152
HYUNDAITU;HYUNDAITU
HYUNDAY;HYUNDAY
HYUNDAY MOTOR;HYUNDAY MOTOR
IA;IA
IAN-CARRIE;IAN-CARRIE
IAT;IAT
IBIZA;IBIZA
IBMW;BMW
ICITROEN;CITROEN
ICTROEN;ICTROEN
ID MALIKFIAT;FIAT
IHC;IHC
IIC;IIC
IIRISBUS;IIRISBUS
IIVECO;IIVECO
ILES AUTOMOTIVE;ILES AUTOMOTIVE
IMERCEDES BENZ;MERCEDES
IMPERIAL;IMPERIAL
INCONNU;INCONNU
INCONNUE;INCONNUE
INCONNUJAGUAR;INCONNUJAGUAR
INCONNURENAULT;RENAULT
INCRENAULT;RENAULT
INDBUS ITALMAK D.O.O.E.L.SKOPJE;INDBUS ITALMAK D.O.O.E.L.SKOPJE
INDCAR;INDCAR
INDUSAUTO;INDUSAUTO
INFINITI;INFINITI
INFINITI NISSAN;NISSAN
INFINITY;INFINITY
INFINTI;INFINTI
INIFINI;INIFINI
INNOCENTI;INNOCENTI
INNOCENTI / BMC MINI;INNOCENTI / BMC MINI
INNOCENTI MINI;INNOCENTI MINI
INTEGRALIA;INTEGRALIA
INTERCAR SERVICE;INTERCAR SERVICE
INTERMECANICA;INTERMECANICA
INTERMECCANICA;INTERMECCANICA
INTERNATIO;INTERNATIO
IOPEL;OPEL
IORD/CHALL;IORD/CHALL
IPEUGEOT;PEUGEOT
IRIBUS;IRIBUS
IRIISBUS;IRIISBUS
IRIRBUS;IRIRBUS
IRIS BUS;IRIS BUS
IRISBBUS;IRISBBUS
IRISBIS;IRISBIS
IRISBIUS;IRISBIUS
IRISBU;IRISBU
IRISBUD;IRISBUD
IRISBUE;IRISBUE
IRISBUS;IRISBUS
IRISBUS ;IRISBUS 
IRISBUS FR;IRISBUS FR
IRISBUS SA;IRISBUS SA
IRISBUSA;IRISBUSA
IRISBUSI;IRISBUSI
IRISBUSSFR;IRISBUSSFR
IRISBUT;IRISBUT
IRISUBS;IRISUBS
IRISVUS;IRISVUS
IRIZAR;IRIZAR
IRIZAR E-MOBILITY;IRIZAR E-MOBILITY
IRIZAR SCANIA;IRIZAR SCANIA
IRSBUS;IRSBUS
IRSIBUS;IRSIBUS
ISEKI;ISEKI
ISO;ISO
ISO RIVOLTA;ISO RIVOLTA
ISSAN;ISSAN
ISUKU;ISUKU
ISUZU;ISUZU
ISUZU ANADOLU;ISUZU ANADOLU
ITALBUS;ITALBUS
ITALIA;ITALIA
ITASCA;ITASCA
ITINEO;ITINEO
ITINÉO;ITINÉO
ITINEO / FIAT;FIAT
ITINEO/FIAT;FIAT
ITROEN;ITROEN
IVCE;IVCE
IVE;IVE
IVECA;IVECA
IVECE;IVECE
IVECO;IVECO
IVECO ;IVECO 
IVECO / KAPENA;IVECO / KAPENA
IVECO BUS;IVECO BUS
IVECO FIAT;FIAT
IVECO FRANCE;IVECO FRANCE
IVECO IRISBUS;IVECO IRISBUS
IVECO.;IVECO.
IVECO/CARTHAGO;IVECO/CARTHAGO
IVECO/CONC;IVECO/CONC
IVECO/CONCORDE;IVECO/CONCORDE
IVECO/FERQUI;IVECO/FERQUI
IVECO/LAIKA;IVECO/LAIKA
IVECO/MMI;IVECO/MMI
IVECO/NIES;IVECO/NIES
IVECO/NIESMANN+BISCHOFF;IVECO/NIESMANN+BISCHOFF
IVECOBUS;IVECOBUS
IVEO;IVEO
IVR;IVR
IVRY;IVRY
IZUBU;IZUBU
J.B.A;J.B.A
J11AA02;J11AA02
JACOB RENAULT;RENAULT
JAGAR;JAGAR
JAGAS;JAGAS
JAGO;JAGO
JAGUAR;JAGUAR
JAGUAR  LAND ROVER LIMITED;JAGUAR  LAND ROVER LIMITED
JAGUAR .;JAGUAR .
JAGUAR CARS;JAGUAR CARS
JAGUAR CARS LIMITED;JAGUAR CARS LIMITED
JAGUAR DAIMLER;JAGUAR DAIMLER
JAGUAR HERITAGE;JAGUAR HERITAGE
JAGUAR JAND ROVER LIMITED;JAGUAR JAND ROVER LIMITED
JAGUAR LAND ROVER;JAGUAR LAND ROVER
JAGUAR LAND ROVER     LIMITED;JAGUAR LAND ROVER     LIMITED
JAGUAR LAND ROVER  LIMITED;JAGUAR LAND ROVER  LIMITED
JAGUAR LAND ROVER LIMITED;JAGUAR LAND ROVER LIMITED
JAGUAR LAND ROVER LIMITID;JAGUAR LAND ROVER LIMITID
JAGUAR LAND ROVER ROVER LIMITED;JAGUAR LAND ROVER ROVER LIMITED
JAGUAR LAND ROVER SPORT;JAGUAR LAND ROVER SPORT
JAGUAR LAND ROWER;JAGUAR LAND ROWER
JAGUAR LYNX;JAGUAR LYNX
JAGUAR RANGE ROVER LIMITED;JAGUAR RANGE ROVER LIMITED
JAGUAR.;JAGUAR.
JAGUAR+;JAGUAR+
JAGUAR161;JAGUAR161
JAGUARD;JAGUARD
JAGUARD LAND ROVER LIMITED;JAGUARD LAND ROVER LIMITED
JAGUARXKR;JAGUARXKR
JAJUAR;JAJUAR
JAQUAR;JAQUAR
JBA;JBA
JC LOCUST;JC LOCUST
JCITROEN;CITROEN
JCMIDGE;JCMIDGE
JEEP;JEEP
JEEP                                     .;JEEP                                     .
JEEP  FY61;JEEP  FY61
JEEP COMPASS;JEEP COMPASS
JEEP EAGLE;JEEP EAGLE
JEEP WILLYS;JEEP WILLYS
JEEP WILLYS OVERLAND;JEEP WILLYS OVERLAND
JEEP-HOTCHKISS;JEEP-HOTCHKISS
JEEP-VIASA;JEEP-VIASA
JEEP.;JEEP.
JEEPFJ78;JEEPFJ78
JEEPI;JEEPI
JEEPS;JEEPS
JENSEN;JENSEN
JEPP;JEPP
JET VW;JET VW
JFIAT/CARTHAGO;FIAT/CARTHAGO
JIDE;JIDE
JIDE QUERON;JIDE QUERON
JJEEP;JJEEP
JJEP;JJEP
JMS;JMS
JOINT;JOINT
JONCKHEERE;JONCKHEERE
JOUSSETPEUGEOT;PEUGEOT
JOWETT;JOWETT
JRENAULT;RENAULT
JSAFJB43V00647357SUZUKI;JSAFJB43V00647357SUZUKI
JUFREMERCEDES BENZ;MERCEDES
JUMPER;JUMPER
JZR;JZR
K.T.M.;K.T.M.
KABE;KABE
KAISER;KAISER
KAISER DARRIN;KAISER DARRIN
KAISER JEEP;KAISER JEEP
KANGOO;KANGOO
KAPENA;KAPENA
KARMAN-MOBIL;KARMAN-MOBIL
KARMANN MOBIL;KARMANN MOBIL
KARMANN-MOBIL;KARMANN-MOBIL
KAROSA;KAROSA
KARSAN;KARSAN
KASSBOHER;KASSBOHER
KASSBOHRER;KASSBOHRER
KAWASAKI;KAWASAKI
KELLISON;KELLISON
KENFAVOLKSWAGEN;VOLKSWAGEN
KENTUCKY CAMP;KENTUCKY CAMP
KHURENAULT;RENAULT
KI;KI
KIA;KIA
KIA FRANCE;KIA FRANCE
KIA JD;KIA JD
KIA MOTOR;KIA MOTOR
KIA MOTORS;KIA MOTORS
KIA MOTORS (SK);KIA MOTORS (SK)
KIA SEPHIA;KIA SEPHIA
KIA.;KIA.
KIM;KIM
KING LONG;KING LONG
KINGLONG;KINGLONG
KIPEUGEOT;PEUGEOT
KIRKHAM;KIRKHAM
KIVI;KIVI
KNAUS;KNAUS
KOCKDACIA;DACIA
KOMBIVOLKSWAGEN;VOLKSWAGEN
KRISMAR;KRISMAR
KTM;KTM
KUCITROEN;CITROEN
KVA;KVA
KVOLKSWAGEN;VOLKSWAGEN
KWB8H5D;KWB8H5D
KWMWYSROVER;KWMWYSROVER
KYA;KYA
KYMCO;KYMCO
KZ0006;KZ0006
L.A. EXOTICS;L.A. EXOTICS
L.INNOCENT;L.INNOCENT
L.M.;L.M.
LA BUIRE;LA BUIRE
LA CROIX DE LA VILLE;LA CROIX DE LA VILLE
LA ERENAULT;RENAULT
LA LICORNE;LA LICORNE
LA SALLE;LA SALLE
LA STRADA;LA STRADA
LACOSTE ET BATTMANN;LACOSTE ET BATTMANN
LADA;LADA
LADA ;LADA 
LADA  VAZ;LADA  VAZ
LADA VAS;LADA VAS
LADA VAZ;LADA VAZ
LADA-VAZ;LADA-VAZ
LADAVAZ;LADAVAZ
LAFER;LAFER
LAGONDA;LAGONDA
LAGUNA;LAGUNA
LAIKA;LAIKA
LAÏKA;LAÏKA
LAIKA CARAVANS;LAIKA CARAVANS
LAIKA CARAVANS SPA;LAIKA CARAVANS SPA
LAMBERTI;LAMBERTI
LAMBORGHIN;LAMBORGHIN
LAMBORGHINI;LAMBORGHINI
LAMBORGHINI.;LAMBORGHINI.
LAN D ROVER;LAN D ROVER
LAN ROVER;LAN ROVER
LANCHESTER;LANCHESTER
LANCI;LANCI
LANCIA;LANCIA
LANCIA AUTOBIANCHI;LANCIA AUTOBIANCHI
LANCIE;LANCIE
LAND;LAND
LAND  ROVER;LAND  ROVER
LAND CRUISER;LAND CRUISER
LAND ROV ER;LAND ROV ER
LAND ROVER;LAND ROVER
LAND ROVER ;LAND ROVER 
LAND ROVER                   .;LAND ROVER                   .
LAND ROVER LIMITED;LAND ROVER LIMITED
LAND ROVER LS AA2 014;LAND ROVER LS AA2 014
LAND ROVER SANTANA;LAND ROVER SANTANA
LAND ROVER SPORT;LAND ROVER SPORT
LAND ROVER.;LAND ROVER.
LAND ROVERD;LAND ROVERD
LAND ROWER;LAND ROWER
LAND-ROVER;LAND-ROVER
LANDFIGHTER;LANDFIGHTER
LANDROVER;LANDROVER
LANGEL;LANGEL
LANICA;LANICA
LANROVER;LANROVER
LARENAULT;RENAULT
LATERAL DESIGN CONCEPTS LTD;LATERAL DESIGN CONCEPTS LTD
LATERAL DESIGN LIMITED;LATERAL DESIGN LIMITED
LATHAM;LATHAM
LATOYOTA;TOYOTA
LAURINFORD;FORD
LCITROEN;CITROEN
LE VOYAGEUR;LE VOYAGEUR
LE ZEBRE;LE ZEBRE
LEA FRANCIS;LEA FRANCIS
LECITRAILER;LECITRAILER
LEDL;LEDL
LEGEND MOTOR COMPANY;LEGEND MOTOR COMPANY
LELIEVREPEUGEOT;PEUGEOT
LEON;LEON
LERENAULT;RENAULT
LES CANARDS DE PARIS;LES CANARDS DE PARIS
LES DAUPHINS;LES DAUPHINS
LES DAUPHNS;LES DAUPHNS
LEVC;LEVC
LEVEQUES;LEVEQUES
LEVOYAGEUR MERCEDES;LEVOYAGEUR MERCEDES
LEVOYAGEUR/MERCEDES-BENZ;LEVOYAGEUR/MERCEDES-BENZ
LEXA;LEXA
LEXUS;LEXUS
LEXUS0;LEXUS0
LEYLAND;LEYLAND
LEYLAND IN;LEYLAND IN
LEYLAND INNOC.;LEYLAND INNOC.
LEYLAND INNOCENTI;LEYLAND INNOCENTI
LEYLANDB.R;LEYLANDB.R
LEYLANDI;LEYLANDI
LEYLANDIN;LEYLANDIN
LEYLANDINN;LEYLANDINN
LFA ROMEO;LFA ROMEO
LHONDA;LHONDA
LHYUNDAI;LHYUNDAI
LICORNE;LICORNE
LIFAN;LIFAN
LIGIER;LIGIER
LINCOLIN;LINCOLIN
LINCOLN;LINCOLN
LINER;LINER
LINZDA;LINZDA
LION PEUGEOT;PEUGEOT
LIRENAULT;RENAULT
LISTER BELL;LISTER BELL
LITTORIE PEUGEOT;PEUGEOT
LIXXBAIL;LIXXBAIL
LLEPEUGEOT;PEUGEOT
LLRENAULT;RENAULT
LM;LM
LM SOVRA;LM SOVRA
LMC;LMC
LMC CARAVA;LMC CARAVA
LMC CARAVAN;LMC CARAVAN
LO-5159-L;LO-5159-L
LOGAN MCV;LOGAN MCV
LOHR;LOHR
LOMAX;LOMAX
LONDON TAXI COMPAGNY;LONDON TAXI COMPAGNY
LONDON TAXIS INTERNATIONAL;LONDON TAXIS INTERNATIONAL
LONPEUGEOT;PEUGEOT
LORRAINE DIETRICH;LORRAINE DIETRICH
LOTUS;LOTUS
LOTUSMLS1605AP017;LOTUSMLS1605AP017
LOUIS ROSIER;LOUIS ROSIER
LRENAULT;RENAULT
LT;LT
LTI;LTI
LTI CARBODIES;LTI CARBODIES
LTI VEHICLES;LTI VEHICLES
LTVOLKSWAGEN;VOLKSWAGEN
LUMENEO;LUMENEO
LUTHER;LUTHER
LVOLKSWAGEN;VOLKSWAGEN
LYNK&CO;LYNK&CO
M;M
M A N;M A N
M G;M G
M.A.JULIEN;M.A.JULIEN
M.A.M;M.A.M
M.A.N;M.A.N
M.A.N.;M.A.N.
M.A.N. CAR;M.A.N. CAR
M.A.N. CARRIER;M.A.N. CARRIER
M.A.N.CARR;M.A.N.CARR
M.A.R.;M.A.R.
M.G;M.G
M.G.;M.G.
M.G. ROVER;M.G. ROVER
M.V.S.;M.V.S.
M10AUDVP026455;M10AUDVP026455
M10BHBVS0336883;M10BHBVS0336883
M10MCDVPNT5A945;M10MCDVPNT5A945
MA;MA
MAALFA ROMEO;ALFA ROMEO
MAC LOUIS;MAC LOUIS
MACBOR;MACBOR
MACITROEN;CITROEN
MACK;MACK
MACLOUIS;MACLOUIS
MADER;MADER
MADZA;MADZA
MAGIRUS;MAGIRUS
MAGIRUS DEUTZ;MAGIRUS DEUTZ
MAGYAR SUZ;MAGYAR SUZ
MAGYAR SUZUKI;MAGYAR SUZUKI
MAM;MAM
MAM-CARRIER;MAM-CARRIER
MAN;MAN
MAN ;MAN 
MAN - CARR;MAN - CARR
MAN - CARRIER;MAN - CARRIER
MAN -CARRIER;MAN -CARRIER
MAN / MOTA;MAN / MOTA
MAN CARRIE;MAN CARRIE
MAN CARRIER;MAN CARRIER
MAN NEOPLAN;MAN NEOPLAN
MAN TRUCK;MAN TRUCK
MAN- CARRIER;MAN- CARRIER
MAN-CARRIE;MAN-CARRIE
MAN-CARRIER;MAN-CARRIER
MAN/CARRIE;MAN/CARRIE
MAN/CARTHAGO;MAN/CARTHAGO
MANCARRIER;MANCARRIER
MANITOU;MANITOU
MANZONIDACIA;DACIA
MARCADIER;MARCADIER
MARCEDES BENZ;MARCEDES BENZ
MARCOS;MARCOS
MARLIN;MARLIN
MARMON;MARMON
MARQUE;MARQUE
MARTIN;MARTIN
MARTIN MOTORS;MARTIN MOTORS
MARTIN TTM;MARTIN TTM
MARTINTTM;MARTINTTM
MARUTI;MARUTI
MARUTTI;MARUTTI
MASCARO VOLKSWAGEN;VOLKSWAGEN
MASERATI;MASERATI
MASERATI.;MASERATI.
MASSEY F;MASSEY F
MASSEY FER;MASSEY FER
MASTER;MASTER
MATFORD;FORD
MATHIS;MATHIS
MATRA;MATRA
MATRA AUTO;MATRA AUTO
MATRA AUTOMOBILE;MATRA AUTOMOBILE
MATRA BONN;MATRA BONN
MATRA BONNET;MATRA BONNET
MATRA SIMC;MATRA SIMC
MATRA SIMCA;MATRA SIMCA
MATRA SPORT;MATRA SPORT
MATRA SPORTS;MATRA SPORTS
MATRA-BONNET;MATRA-BONNET
MATRA-SIMCA;MATRA-SIMCA
MATRA-SPOR;MATRA-SPOR
MATRAAUTOM;MATRAAUTOM
MATRAS;MATRAS
MATRASPORT;MATRASPORT
MAYBACH;MAYBACH
MAZADA;MAZADA
MAZD;MAZD
MAZDA;MAZDA
MAZDA 42S;MAZDA 42S
MAZDA.;MAZDA.
MAZDAM;MAZDAM
MAZDDA;MAZDDA
MAZERATI;MAZERATI
MB;MB
MBK;MBK
MBK TZR;MBK TZR
MBM3945CG441;MBM3945CG441
MBM6754K6094;MBM6754K6094
MBM7941C8429;MBM7941C8429
MBM8942KD166;MBM8942KD166
MBW;MBW
MC;MC
MC ACER;MC ACER
MC LAREN;MC LAREN
MC LOUI;MC LOUI
MC LOUIS;MC LOUIS
MC LOUIS FIAT;FIAT
MC LOUIS S;MC LOUIS S
MC LOUIS SEA;MC LOUIS SEA
MC LOUIS SEA SPA;MC LOUIS SEA SPA
MC-LOUIS;MC-LOUIS
MCCHRYSLER;MCCHRYSLER
MCLOUIS;MCLOUIS
MCT1402A3390CITROEN;CITROEN
MECEDES;MECEDES
MECEDES BE;MECEDES BE
MECEDES BENZ;MECEDES BENZ
MECEDES-BENZ;MECEDES-BENZ
MECEDES-BENZ AG;MECEDES-BENZ AG
MECEDEZ BENZ;MECEDEZ BENZ
MECKESPEUGEOT;PEUGEOT
MEERCEDES;MEERCEDES
MEGA;MEGA
MEGANE;MEGANE
MEGANE SCENIC;MEGANE SCENIC
MEHARI;MEHARI
MENAULT SAMSUNG;MENAULT SAMSUNG
MER-BENZ;MER-BENZ
MERC BENZ;MERC BENZ
MERC.BENZ;MERC.BENZ
MERCBENZ;MERCBENZ
MERCCEDES-BENZ;MERCCEDES-BENZ
MERCDDES-BENZ;MERCDDES-BENZ
MERCDES;MERCDES
MERCDES BE;MERCDES BE
MERCDES BENS;MERCDES BENS
MERCDES BENZ;MERCDES BENZ
MERCDES-BENZ;MERCDES-BENZ
MERCDEZ BENZ;MERCDEZ BENZ
MERCE;MERCE
MERCE.BENZ;MERCE.BENZ
MERCE/BENZ;MERCE/BENZ
MERCECDES;MERCECDES
MERCECES B;MERCECES B
MERCECESBE;MERCECESBE
MERCED;MERCED
MERCED/CL;MERCED/CL
MERCED/CS;MERCED/CS
MERCEDE BENZ;MERCEDE BENZ
MERCEDE3S BENZ;MERCEDE3S BENZ
MERCEDEC BENZ;MERCEDEC BENZ
MERCEDEES BENZ;MERCEDEES BENZ
MERCEDENS BENZ;MERCEDENS BENZ
MERCEDES;MERCEDES
MERCEDES ;MERCEDES 
MERCEDES  BENZ;MERCEDES  BENZ
MERCEDES - BENZ;MERCEDES - BENZ
MERCEDES -BENZ;MERCEDES -BENZ
MERCEDES / RAPIDO;MERCEDES / RAPIDO
MERCEDES A;MERCEDES A
MERCEDES AMG;MERCEDES AMG
MERCEDES AMG  .;MERCEDES AMG  .
MERCEDES B;MERCEDES B
MERCEDES B ENZ;MERCEDES B ENZ
MERCEDES BEBZ;MERCEDES BEBZ
MERCEDES BEN;MERCEDES BEN
MERCEDES BENE;MERCEDES BENE
MERCEDES BENS;MERCEDES BENS
MERCEDES BENZ;MERCEDES
MERCEDES BENZ ;MERCEDES 
MERCEDES BENZ               .;MERCEDES               .
MERCEDES BENZ           .;MERCEDES           .
MERCEDES BENZ       .;MERCEDES       .
MERCEDES BENZ - CENTO;MERCEDES - CENTO
MERCEDES BENZ - CENTO BUS;MERCEDES - CENTO BUS
MERCEDES BENZ AG;MERCEDES AG
MERCEDES BENZ GLA;MERCEDES GLA
MERCEDES BENZ LEVOYAGEUR;MERCEDES LEVOYAGEUR
MERCEDES BENZ------;MERCEDES------
MERCEDES BENZ-MULTITEL;MERCEDES-MULTITEL
MERCEDES BENZ/LE VOYAGEUR;MERCEDES/LE VOYAGEUR
MERCEDES BENZ208;MERCEDES208
MERCEDES BENZ5;MERCEDES5
MERCEDES BENZA;MERCEDESA
MERCEDES BENZCOSTEBELL;MERCEDESCOSTEBELL
MERCEDES BENZMOD;MERCEDESMOD
MERCEDES BENZP;MERCEDESP
MERCEDES BENZREGNEAULT;MERCEDESREGNEAULT
MERCEDES BENZVIRY;MERCEDESVIRY
MERCEDES BEZ;MERCEDES BEZ
MERCEDES BNEZ;MERCEDES BNEZ
MERCEDES DAIMLER;MERCEDES DAIMLER
MERCEDES ENZ;MERCEDES ENZ
MERCEDES IDILIS;MERCEDES IDILIS
MERCEDES P;MERCEDES P
MERCEDES R;MERCEDES R
MERCEDES SPRINTER / BUS FACTORY;MERCEDES SPRINTER / BUS FACTORY
MERCEDES UNIMOG;MERCEDES UNIMOG
MERCEDES V;MERCEDES V
MERCEDES VITO;MERCEDES VITO
MERCEDES- BENZ;MERCEDES- BENZ
MERCEDES-AMG;MERCEDES-AMG
MERCEDES-B;MERCEDES-B
MERCEDES-BENS;MERCEDES-BENS
MERCEDES-BENZ;MERCEDES-BENZ
MERCEDES-BENZ AG;MERCEDES-BENZ AG
MERCEDES-BENZ DAIMLER AG;MERCEDES-BENZ DAIMLER AG
MERCEDES-BENZ/;MERCEDES-BENZ/
MERCEDES-BENZ/BAVARIA;MERCEDES-BENZ/BAVARIA
MERCEDES-BENZ/LE;MERCEDES-BENZ/LE
MERCEDES-BENZ/LE VOYAGEUR;MERCEDES-BENZ/LE VOYAGEUR
MERCEDES-BENZ/PILOTE;MERCEDES-BENZ/PILOTE
MERCEDES-BEZ;MERCEDES-BEZ
MERCEDES-DAIMLER;MERCEDES-DAIMLER
MERCEDES-DENZ;MERCEDES-DENZ
MERCEDES-E;MERCEDES-E
MERCEDES-ESTEREL;MERCEDES-ESTEREL
MERCEDES.B;MERCEDES.B
MERCEDES/B;MERCEDES/B
MERCEDES/CHALLENGER;MERCEDES/CHALLENGER
MERCEDES/CHAUSSON;MERCEDES/CHAUSSON
MERCEDES/P;MERCEDES/P
MERCEDES/PILOTE;MERCEDES/PILOTE
MERCEDES/R;MERCEDES/R
MERCEDES/RAPIDO;MERCEDES/RAPIDO
MERCEDES4RU115;MERCEDES4RU115
MERCEDESB;MERCEDESB
MERCEDESBE;MERCEDESBE
MERCEDESBENZ;MERCEDESBENZ
MERCEDESM;MERCEDESM
MERCEDEX B;MERCEDEX B
MERCEDEX-BENZ;MERCEDEX-BENZ
MERCEDEZ;MERCEDEZ
MERCEDEZ ;MERCEDEZ 
MERCEDEZ B;MERCEDEZ B
MERCEDEZ BEN;MERCEDEZ BEN
MERCEDEZ BENS;MERCEDEZ BENS
MERCEDEZ BENZ;MERCEDEZ BENZ
MERCEDEZ-B;MERCEDEZ-B
MERCEDEZ-BENZ;MERCEDEZ-BENZ
MERCEDEZ-BENZ AG;MERCEDEZ-BENZ AG
MERCEDS;MERCEDS
MERCEDS BENZ;MERCEDS BENZ
MERCEDS BENZ/PILOTE;MERCEDS BENZ/PILOTE
MERCEDS-BENZ;MERCEDS-BENZ
MERCERDES;MERCERDES
MERCERDES BENZ;MERCERDES BENZ
MERCERES B;MERCERES B
MERCES BEN;MERCES BEN
MERCES-BENZ;MERCES-BENZ
MERCESDES;MERCESDES
MERCESDES BENZ;MERCESDES BENZ
MERCREDES BENZ;MERCREDES BENZ
MERCURY;MERCURY
MERCURY COMET;MERCURY COMET
MERCUS;MERCUS
MERCVEDES BENZ;MERCVEDES BENZ
MERDECES B;MERDECES B
MERDECES BENZ;MERDECES BENZ
MERDEDES;MERDEDES
MERDEDES BENZ;MERDEDES BENZ
MERECEDES BENZ;MERECEDES BENZ
MEREDES BENZ;MEREDES BENZ
MERLIN;MERLIN
MERLIN SPORTS CARS;MERLIN SPORTS CARS
MESSAGER;MESSAGER
MESSIER;MESSIER
METROCAB;METROCAB
MEUGEOT;MEUGEOT
MEYERS;MEYERS
MEYERS MANX;MEYERS MANX
MG;MG
MG ROVER;MG ROVER
MGA 1600;MGA 1600
MGB;MGB
MGM;MGM
MGT;MGT
MHEDIVOLKSWAGEN;VOLKSWAGEN
MIA;MIA
MICRA;MICRA
MICRO-VETT;MICRO-VETT
MICROCAR;MICROCAR
MICROVETT;MICROVETT
MILLER;MILLER
MIMI;MIMI
MINE;MINE
MINERVA;MINERVA
MINI;MINI
MINI AUSTIN;MINI AUSTIN
MINI COOPER;MINI COOPER
MINI JEM;MINI JEM
MINI MARCOS;MINI MARCOS
MINI MOKE;MINI MOKE
MINI ROVER;MINI ROVER
MINI.;MINI.
MINIMAYFAI;MINIMAYFAI
MINIMOKE;MINIMOKE
MIRAGE;MIRAGE
MISSAN;MISSAN
MISSAN MOT;MISSAN MOT
MISTSUBISHI;MISTSUBISHI
MISTUBISHI;MISTUBISHI
MIT;MIT
MITCHUBISHI;MITCHUBISHI
MITROEN;MITROEN
MITSHUBISH;MITSHUBISH
MITSHUBISHI;MITSHUBISHI
MITSTUBISHI;MITSTUBISHI
MITSUB15HI;MITSUB15HI
MITSUBICHI;MITSUBICHI
MITSUBIHI;MITSUBIHI
MITSUBIS;MITSUBIS
MITSUBISCH;MITSUBISCH
MITSUBISCHI;MITSUBISCHI
MITSUBISHI;MITSUBISHI
MITSUBISHI MOTORS;MITSUBISHI MOTORS
MITSUBISHI PAJERO MONTERO;MITSUBISHI PAJERO MONTERO
MITSUBISHI0;MITSUBISHI0
MITSUBISHIW;MITSUBISHIW
MITSUBSHI;MITSUBSHI
MITUSBISHI;MITUSBISHI
MITUSUBISH;MITUSUBISH
MJN1112D7642;MJN1112D7642
MK;MK
MLAND ROVER;MLAND ROVER
MMI;MMI
MMN1701AP186;MMN1701AP186
MOBIL FCA;MOBIL FCA
MOBIL PART;MOBIL PART
MOBIL PARTNER;MOBIL PARTNER
MOBIL VETTA;MOBIL VETTA
MOBILCENTER ZAWATZKY;MOBILCENTER ZAWATZKY
MOBILVETA;MOBILVETA
MOBILVETTA;MOBILVETTA
MOBILVETTA  FIAT;FIAT
MOBILVETTA  SEA SPA;MOBILVETTA  SEA SPA
MOBILVETTA CAVALLI;MOBILVETTA CAVALLI
MOBILVETTA DESIGH;MOBILVETTA DESIGH
MOBILVETTA DESIGN;MOBILVETTA DESIGN
MOBILVETTA FIAT;FIAT
MOBILVETTA SEA;MOBILVETTA SEA
MOBILVETTA SILVER;MOBILVETTA SILVER
MODBMW;BMW
MOKE;MOKE
MONACO;MONACO
MONASSO;MONASSO
MONCAYO;MONCAYO
MONPOIXPORSCHE;MONPOIXPORSCHE
MOOVEO;MOOVEO
MORCOMBEVOLKSWAGEN;VOLKSWAGEN
MORD;MORD
MOREAUNISSAN;NISSAN
MORELO;MORELO
MORGAN;MORGAN
MORGAN MOTORS;MORGAN MOTORS
MORICAIR;MORICAIR
MORICE AIR;MORICE AIR
MORICE CONSTRUCTEUR;MORICE CONSTRUCTEUR
MORICE-CONSTRUCTEUR;MORICE-CONSTRUCTEUR
MORICEAIR;MORICEAIR
MORICEAR;MORICEAR
MORRIS;MORRIS
MORRIS LEON BOLLEE;MORRIS LEON BOLLEE
MORRIS MINOR;MORRIS MINOR
MOSS;MOSS
MOTO STAR;MOTO STAR
MOTOBECANE;MOTOBECANE
MOTOR;MOTOR
MOTORS;MOTORS
MOTORSPORT;MOTORSPORT
MOWAG;MOWAG
MPE5001KA794PEUGEOT;PEUGEOT
MPE5512PK006;MPE5512PK006
MPEUGEOT;PEUGEOT
MPL5161FR599;MPL5161FR599
MPM MOTORS;MPM MOTORS
MPORSCHE;MPORSCHE
MRCEDES;MRCEDES
MRCEDES BENZ;MRCEDES BENZ
MRE1031FJ461;MRE1031FJ461
MRE1202AZ657RENAULT;RENAULT
MRECEDES-BENZ;MRECEDES-BENZ
MRENAULT;RENAULT
MSC;MSC
MSV;MSV
MTISUBISHI;MTISUBISHI
MTISUBSHI;MTISUBSHI
MTSUBISHI;MTSUBISHI
MUDI;MUDI
MULTIMACO APAL;MULTIMACO APAL
MUSSA & GRAZIANO S.R.L.;MUSSA & GRAZIANO S.R.L.
MUSTANF GT COUPE;MUSTANF GT COUPE
MUSTANG;MUSTANG
MUSTANG  GT;MUSTANG  GT
MUSTANG COUPE;MUSTANG COUPE
MUSTANG GT;MUSTANG GT
MUSTANG GT COUPE;MUSTANG GT COUPE
MUSTANGFORD;FORD
MVOLKSWAGEN;VOLKSWAGEN
MVS;MVS
MW;MW
MZADA;MZADA
N M U K;N M U K
N?SSAN;N?SSAN
N.M.U.K.;N.M.U.K.
N.S.U.;N.S.U.
N/AWESTFIELD;N/AWESTFIELD
N0ISSAN;N0ISSAN
NAF;NAF
NASH;NASH
NATIONAL;NATIONAL
NAUDAL;NAUDAL
NAULT;NAULT
NAUTILUS;NAUTILUS
NCVOLKSWAGEN;VOLKSWAGEN
NDAMENISSAN;NISSAN
NECKAR;NECKAR
NEKAF;NEKAF
NEOPLAN;NEOPLAN
NEUF;NEUF
NEUMANNVOLKSWAGEN;VOLKSWAGEN
NEW BEETLE;NEW BEETLE
NEW HOLLAND;NEW HOLLAND
NEW-MAP;NEW-MAP
NEWTL;NEWTL
NG;NG
NIESMANN;NIESMANN
NIESMANN + BISCHOFF;NIESMANN + BISCHOFF
NIESMANN BISCHOFF;NIESMANN BISCHOFF
NIESMANN-B;NIESMANN-B
NIESMANN-BISCHOFF;NIESMANN-BISCHOFF
NIESMANN+BISCHOFF;NIESMANN+BISCHOFF
NIISSAN;NIISSAN
NILSSON;NILSSON
NIPEUGEOT;PEUGEOT
NISAN;NISAN
NISSA;NISSA
NISSAMARAN;NISSAMARAN
NISSAN;NISSAN
NISSÄN;NISSÄN
NÏSSAN;NÏSSAN
NISSAN ;NISSAN 
NISSAN                                           .;NISSAN                                           .
NISSAN ***;NISSAN ***
NISSAN ESPAGNE;NISSAN ESPAGNE
NISSAN INFINITY;NISSAN INFINITY
NISSAN MI;NISSAN MI
NISSAN MOD JPM;NISSAN MOD JPM
NISSAN MOT;NISSAN MOT
NISSAN MOTOR;NISSAN MOTOR
NISSAN MOTOR IBERICA;NISSAN MOTOR IBERICA
NISSAN MOTOR UK;NISSAN MOTOR UK
NISSAN MOTORS;NISSAN MOTORS
NISSAN MUK;NISSAN MUK
NISSAN MVK;NISSAN MVK
NISSAN QASHQAI;NISSAN QASHQAI
NISSAN-;NISSAN-
NISSAN-MOT;NISSAN-MOT
NISSAN,;NISSAN,
NISSAN, INTERNATIONAL;NISSAN, INTERNATIONAL
NISSAN.;NISSAN.
NISSAN/CTE;NISSAN/CTE
NISSAN/GSA;NISSAN/GSA
NISSAN1;NISSAN1
NISSAN1040;NISSAN1040
NISSAN1540;NISSAN1540
NISSAN5;NISSAN5
NISSANMOTO;NISSANMOTO
NISSAS;NISSAS
NISSSAN;NISSSAN
NISSZAN;NISSZAN
NMUK;NMUK
NOBEL ART;NOBEL ART
NOBLE;NOBLE
NOELPEUGEOT;PEUGEOT
NOGE;NOGE
NON SPEC;NON SPEC
NORTON;NORTON
NOTIN;NOTIN
NPEUGEOT;PEUGEOT
NRENAULT;RENAULT
NSU;NSU
NSU 41;NSU 41
NTOYOTA;TOYOTA
NUISSAN;NUISSAN
NUOVAINNOC;NUOVAINNOC
O0000000000000000000000000000000000000000000000PEL;O0000000000000000000000000000000000000000000000PEL
OAKLAND;OAKLAND
OBERAIGNER AUTOMOTIVE GMBH;OBERAIGNER AUTOMOTIVE GMBH
ODLSMOBILE;ODLSMOBILE
OEPL;OEPL
OEUGEOT;OEUGEOT
OFFICINE D'AURIA S.R.L;OFFICINE D'AURIA S.R.L
OJPEL;OJPEL
OKOTAR ;OKOTAR 
OLDSMOBILE;OLDSMOBILE
OLKSWAGEN;OLKSWAGEN
OLSMOBILE;OLSMOBILE
ONDA;ONDA
OOPEL;OPEL
OPAL;OPAL
OPE;OPE
OPEKL;OPEKL
OPEL;OPEL
OPÊL;OPÊL
OPEL ;OPEL 
OPEL KADET;OPEL KADET
OPEL VAUXHALL;OPEL VAUXHALL
OPEL.;OPEL.
OPEL*;OPEL*
OPEL/MODUL-SYSTEM;OPEL/MODUL-SYSTEM
OPEL0;OPEL0
OPEL005;OPEL005
OPEL07;OPEL07
OPEL11;OPEL11
OPEL5;OPEL5
OPEL7;OPEL7
OPELA;OPELA
OPELCHATEAU;OPELCHATEAU
OPELMRF4ZCS1AEB3;OPELMRF4ZCS1AEB3
OPEN;OPEN
OPEUGEOT;PEUGEOT
OPL;OPL
OPLE;OPLE
OPOPEL;OPEL
ORENAULT;RENAULT
OSCA;OSCA
OSHKOSH;OSHKOSH
OSI;OSI
OT;OT
OTOKAR;OTOKAR
OTOKAR ;OTOKAR 
OVERLAND;OVERLAND
OVERLAND W;OVERLAND W
OXYGEN;OXYGEN
OYOTA;OYOTA
P-FIAT;FIAT
P¿SL;P¿SL
P.L.A.;P.L.A.
P.V.I;P.V.I
P.V.I.;P.V.I.
P.V.I. - C;P.V.I. - C
P.V.I. CAR;P.V.I. CAR
PACHIAUDI;AUDI
PACKARD;PACKARD
PAGANI;PAGANI
PAJERO;PAJERO
PANAMA;PANAMA
PANDA;PANDA
PANHARD;PANHARD
PANHARD L;PANHARD L
PANHARD LEVASSON;PANHARD LEVASSON
PANHARD LEVASSOR;PANHARD LEVASSOR
PANHARD-L;PANHARD-L
PANOZ;PANOZ
PANTHER;PANTHER
PARTIR NISSAN;NISSAN
PASSAT;PASSAT
PAUDI;AUDI
PAUGEOT;PAUGEOT
PB ENVIRONNEMENT;PB ENVIRONNEMENT
PCITROEN;CITROEN
PE;PE
PE?GEOT;PE?GEOT
PEACE SPORTS;PEACE SPORTS
PEDUGEOT;PEDUGEOT
PEERLESS;PEERLESS
PEEUGEOT;PEEUGEOT
PEGEOT;PEGEOT
PEGUEOT;PEGUEOT
PEIDU;PEIDU
PEIGEOT;PEIGEOT
PEIUGEOT;PEIUGEOT
PEL;PEL
PETIT PICOT;PETIT PICOT
PETIT-PICOT;PETIT-PICOT
PEU;PEU
PEU GEOT;PEU GEOT
PEUCOT;PEUCOT
PEUEGOT;PEUEGOT
PEUEOT;PEUEOT
PEUFGEOT;PEUFGEOT
PEUG;PEUG
PEUG EOT;PEUG EOT
PEUGE;PEUGE
PEUGE0T;PEUGE0T
PEUGEFOT;PEUGEFOT
PEUGEO;PEUGEO
PEUGEOET;PEUGEOET
PEUGEOG;PEUGEOG
PEUGEOIT;PEUGEOIT
PEUGEOM;PEUGEOM
PEUGEOOT;PEUGEOOT
PEUGEOR;PEUGEOR
PEUGEORT;PEUGEORT
PEUGEOT;PEUGEOT
PEUGËOT;PEUGËOT
PEÜGEOT;PEÜGEOT
PËUGEOT;PËUGEOT
PEUGEOT ;PEUGEOT 
PEUGEOT                                 PEUGEOT;PEUGEOT
PEUGEOT 108PEUGEOT;PEUGEOT
PEUGEOT 1C;PEUGEOT 1C
PEUGEOT AUTOMOBILES;PEUGEOT AUTOMOBILES
PEUGEOT BOXER/BOXER TRAVELLER;PEUGEOT BOXER/BOXER TRAVELLER
PEUGEOT BOXER/GLOBE-TRAVELLER;PEUGEOT BOXER/GLOBE-TRAVELLER
PEUGEOT DEUTSCHLAND;PEUGEOT DEUTSCHLAND
PEUGEOT EUROPEAN;PEUGEOT EUROPEAN
PEUGEOT FRANCE;PEUGEOT FRANCE
PEUGEOT ITALIE;PEUGEOT ITALIE
PEUGEOT MOD;PEUGEOT MOD
PEUGEOT PILOT;PEUGEOT PILOT
PEUGEOT T. LIMON DUPARCME;PEUGEOT T. LIMON DUPARCME
PEUGEOT-;PEUGEOT-
PEUGEOT-EUROPE;PEUGEOT-EUROPE
PEUGEOT-EUROPEAN;PEUGEOT-EUROPEAN
PEUGEOT-LEVOYAGEUR;PEUGEOT-LEVOYAGEUR
PEUGEOT-TRIPOD;PEUGEOT-TRIPOD
PEUGEOT.;PEUGEOT.
PEUGEOT/GIFA;PEUGEOT/GIFA
PEUGEOT/REC;PEUGEOT/REC
PEUGEOT+;PEUGEOT+
PEUGEOT000;PEUGEOT000
PEUGEOT11;PEUGEOT11
PEUGEOT1175;PEUGEOT1175
PEUGEOT12;PEUGEOT12
PEUGEOT1260;PEUGEOT1260
PEUGEOT133;PEUGEOT133
PEUGEOT137;PEUGEOT137
PEUGEOT1410;PEUGEOT1410
PEUGEOT²;PEUGEOT²
PEUGEOT30;PEUGEOT30
PEUGEOT345;PEUGEOT345
PEUGEOT512;PEUGEOT512
PEUGEOT6;PEUGEOT6
PEUGEOT985;PEUGEOT985
PEUGEOTA;PEUGEOTA
PEUGEOTAN;PEUGEOTAN
PEUGEOTBOULAIRE;PEUGEOTBOULAIRE
PEUGEOTCUBHYK/S;PEUGEOTCUBHYK/S
PEUGEOTD;PEUGEOTD
PEUGEOTF;PEUGEOTF
PEUGEOTG;PEUGEOTG
PEUGEOTGEOT;PEUGEOTGEOT
PEUGEOTLBYHZP-C2F000;PEUGEOTLBYHZP-C2F000
PEUGEOTM;PEUGEOTM
PEUGEOTMOD;PEUGEOTMOD
PEUGEOTMPE000ADK129;PEUGEOTMPE000ADK129
PEUGEOTMPE5012T;PEUGEOTMPE5012T
PEUGEOTSELON;PEUGEOTSELON
PEUGEOTTR;PEUGEOTTR
PEUGEOTW;PEUGEOTW
PEUGEOY;PEUGEOY
PEUGEPT;PEUGEPT
PEUGET;PEUGET
PEUGETO;PEUGETO
PEUGFEOT;PEUGFEOT
PEUGGEOT;PEUGGEOT
PEUGHEOT;PEUGHEOT
PEUGOET;PEUGOET
PEUGOT;PEUGOT
PEUGOT 741;PEUGOT 741
PEUGROT;PEUGROT
PEUIGEOT;PEUIGEOT
PEUUGEOT;PEUUGEOT
PEYUGEOT;PEYUGEOT
PEZUGEOT;PEZUGEOT
PGO;PGO
PGO AUTOMOBILES;PGO AUTOMOBILES
PGP AUTOMOBILES;PGP AUTOMOBILES
PHOENIX;PHOENIX
PIAGGIO;PIAGGIO
PICASSO;PICASSO
PICITROEN;CITROEN
PIERCE ARROW;PIERCE ARROW
PIGEON;PIGEON
PIGEON PERFORMANCE;PIGEON PERFORMANCE
PILATO;PILATO
PILGRIM;PILGRIM
PILGRIM BULLDOG;PILGRIM BULLDOG
PILGRIM GRP;PILGRIM GRP
PILGRIM SIMO;PILGRIM SIMO
PILGRIM SUMO;PILGRIM SUMO
PILOTE;PILOTE
PILOTE / FIAT;FIAT
PILOTE / MERCEDES;PILOTE / MERCEDES
PILOTE FIAT;FIAT
PILOTE MERCEDES;PILOTE MERCEDES
PILOTE/FIAT;FIAT
PINIFARINA;PINIFARINA
PININFARIN;PININFARIN
PININFARINA;PININFARINA
PISANIQUATTRO;PISANIQUATTRO
PLA;PLA
PLYMOUTH;PLYMOUTH
PNISSAN;NISSAN
POCITROEN;CITROEN
POCLAIN VEHICULES;POCLAIN VEHICULES
POESCHE;POESCHE
POESSL;POESSL
POLARIS;POLARIS
POLESTAR;POLESTAR
POLLMANN;POLLMANN
POLO;POLO
PONTIAC;PONTIAC
PONTIAC ;PONTIAC 
PONTICELLI;PONTICELLI
POOSL;POOSL
POPEL;OPEL
PORCHE;PORCHE
PORCSHE;PORCSHE
PORSCH;PORSCH
PORSCHE;PORSCHE
PÖRSCHE;PÖRSCHE
PORSCHE                                          .;PORSCHE                                          .
PORSCHE                   .;PORSCHE                   .
PORSCHE 911;PORSCHE 911
PORSCHE AG;PORSCHE AG
PORSCHE DIESEL;PORSCHE DIESEL
PORSCHE FRANCE;PORSCHE FRANCE
PORSCHE.;PORSCHE.
PORSCHE911;PORSCHE911
PORSCHE911SC;PORSCHE911SC
PORSCHELAT;PORSCHELAT
PORSHE;PORSHE
PORSMITSUBISHI;PORSMITSUBISHI
POSCHE;POSCHE
POSRCHE;POSRCHE
POSSI;POSSI
POSSL;POSSL
PÔSSL;PÔSSL
PÖSSL;PÖSSL
POSSL CITROEN;CITROEN
POTIAC;POTIAC
POTTINGER;POTTINGER
POWER PERFORMANCE;POWER PERFORMANCE
PPEUGEOT;PEUGEOT
PPM;PPM
PRAT;PRAT
PRENAULT;RENAULT
PREUGEOT;PREUGEOT
PRINCES;PRINCES
PRINCESS;PRINCESS
PRINZING;PRINZING
PRIUS;PRIUS
PROCARS;PROCARS
PROSCHE;PROSCHE
PROTON;PROTON
PRUGEOT;PRUGEOT
PUCH;PUCH
PUEGEOT;PUEGEOT
PUGEOT;PUGEOT
PUMA;PUMA
PUNTO;PUNTO
PUR-SANG;PUR-SANG
PVI;PVI
PVI CARRIE;PVI CARRIE
PVI CARRIER;PVI CARRIER
PVI-CARRIE;PVI-CARRIE
PVI-CARRIER;PVI-CARRIER
PVOLKSWAGEN;VOLKSWAGEN
PVOLVO;PVOLVO
PVSSL;PVSSL
PZUGZOT;PZUGZOT
QASHQAI;QASHQAI
QASHQAÏ;QASHQAÏ
QFIAT;FIAT
QOROS;QOROS
QRENAULT;RENAULT
QUADDY;QUADDY
QUASAR UNIPOWER;QUASAR UNIPOWER
QUATTRO;QUATTRO
R;R
RADICAL SPORTSCARS;RADICAL SPORTSCARS
RAIDER;RAIDER
RALLY;RALLY
RAM;RAM
RAM KIT;RAM KIT
RAMBLER;RAMBLER
RAMPINI;RAMPINI
RAMPINI ;RAMPINI 
RAMPINI CARLO S.P.A.;RAMPINI CARLO S.P.A.
RAMPINI CARLO SPA;RAMPINI CARLO SPA
RANAULT;RANAULT
RANDGER;RANDGER
RANGE ROVER;RANGE ROVER
RANGE ROVER SPORT;RANGE ROVER SPORT
RANGE-ROVER;RANGE-ROVER
RANTUL;RANTUL
RAPIDO;RAPIDO
RAPIDO / FIAT;FIAT
RAPIDO CAMPING CAR;RAPIDO CAMPING CAR
RAPIDO.;RAPIDO.
RAYTON;RAYTON
RAYTON FIS;RAYTON FIS
RCB;RCB
RDAIHATSU;RDAIHATSU
RE;RE
RE NAULT;RE NAULT
REANALT;REANALT
REANAULT;REANAULT
REANULT;REANULT
REANULT ALPINE;REANULT ALPINE
REAULT;REAULT
REAULT TRUCK;REAULT TRUCK
REBAULT;REBAULT
REBNAULT;REBNAULT
RECONSTRUIT A PARTIR DE PIECES;RECONSTRUIT A PARTIR DE PIECES
RECPEUGEOT;PEUGEOT
RED HORSE;RED HORSE
REENAULT;REENAULT
REICHERTVOLKSWAGEN;VOLKSWAGEN
RELIANT;RELIANT
REN;REN
RENA;RENA
RENA12;RENA12
RENAILT;RENAILT
RENAIULT ;RENAIULT 
RENALT;RENALT
RENALUT;RENALUT
RENAMULT;RENAMULT
RENARD;RENARD
RENAU;RENAU
RENAU.LT;RENAU.LT
RENAU.T;RENAU.T
RENAU/LT;RENAU/LT
RENAUD;RENAUD
RENAUDLT;RENAUDLT
RENAUFLT;RENAUFLT
RENAUILT;RENAUILT
RENAUJLT;RENAUJLT
RENAUKLT;RENAUKLT
RENAUL;RENAUL
RENAUL TRAFIC;RENAUL TRAFIC
RENAUL1305;RENAUL1305
RENAUL1840;RENAUL1840
RENAULD;RENAULD
RENAULE;RENAULE
RENAULKT;RENAULKT
RENAULLT;RENAULLT
RENAULMRE5304AK652;RENAULMRE5304AK652
RENAULMT;RENAULMT
RENAULR;RENAULR
RENAULT;RENAULT
RENAULT ;RENAULT 
RENAULT                          .;RENAULT                          .
RENAULT  ALPINE;RENAULT  ALPINE
RENAULT  C;RENAULT  C
RENAULT  GIFACOLLET;RENAULT  GIFACOLLET
RENAULT .;RENAULT .
RENAULT 2;RENAULT 2
RENAULT A;RENAULT A
RENAULT AGRICULTURE;RENAULT AGRICULTURE
RENAULT ALLEMAGNE;RENAULT ALLEMAGNE
RENAULT ALPINE;RENAULT ALPINE
RENAULT AUTOMOBILES;RENAULT AUTOMOBILES
RENAULT B4;RENAULT B4
RENAULT CH;RENAULT CH
RENAULT CHAUSSON;RENAULT CHAUSSON
RENAULT CLIO;RENAULT CLIO
RENAULT F;RENAULT F
RENAULT FL;RENAULT FL
RENAULT FRANCE;RENAULT FRANCE
RENAULT HFJ;RENAULT HFJ
RENAULT HOLANDE;RENAULT HOLANDE
RENAULT IRISBUS;RENAULT IRISBUS
RENAULT LO;RENAULT LO
RENAULT MAGANE;RENAULT MAGANE
RENAULT MARCADIER;RENAULT MARCADIER
RENAULT MATRA;RENAULT MATRA
RENAULT MEGANE;RENAULT MEGANE
RENAULT MOD JPM;RENAULT MOD JPM
RENAULT POLSKA;RENAULT POLSKA
RENAULT R;RENAULT R
RENAULT RVI;RENAULT RVI
RENAULT SAMSUNG;RENAULT SAMSUNG
RENAULT SAS;RENAULT SAS
RENAULT SCENIC;RENAULT SCENIC
RENAULT SINPAR;RENAULT SINPAR
RENAULT SOMAC;RENAULT SOMAC
RENAULT SPORT;RENAULT SPORT
RENAULT TECH;RENAULT TECH
RENAULT TIB;RENAULT TIB
RENAULT TOUCHE DE TR;RENAULT TOUCHE DE TR
RENAULT TRAFIC;RENAULT TRAFIC
RENAULT TRAUCKS;RENAULT TRAUCKS
RENAULT TRUCK;RENAULT TRUCK
RENAULT TRUCKS;RENAULT TRUCKS
RENAULT TWINGO;RENAULT TWINGO
RENAULT-;RENAULT-
RENAULT-FL;RENAULT-FL
RENAULT-FLEURETTE;RENAULT-FLEURETTE
RENAULT-TRUCK;RENAULT-TRUCK
RENAULT.;RENAULT.
RENAULT/ADRIA MOBIL;RENAULT/ADRIA MOBIL
RENAULT/AU;RENAULT/AU
RENAULT/AUTOSTAR;RENAULT/AUTOSTAR
RENAULT/BA;RENAULT/BA
RENAULT/BAVARIA;RENAULT/BAVARIA
RENAULT/CH;RENAULT/CH
RENAULT/CHALLENGER;RENAULT/CHALLENGER
RENAULT/CHAUSSON;RENAULT/CHAUSSON
RENAULT/CTE;RENAULT/CTE
RENAULT/HYMER;RENAULT/HYMER
RENAULT/MO;RENAULT/MO
RENAULT/MOOVEO;RENAULT/MOOVEO
RENAULT/PI;RENAULT/PI
RENAULT/PILOTE;RENAULT/PILOTE
RENAULT/RENAULT POLSKA;RENAULT POLSKA
RENAULT+;RENAULT+
RENAULT0;RENAULT0
RENAULT00;RENAULT00
RENAULT000;RENAULT000
RENAULT1;RENAULT1
RENAULT10;RENAULT10
RENAULT1015;RENAULT1015
RENAULT1075;RENAULT1075
RENAULT1140;RENAULT1140
RENAULT12;RENAULT12
RENAULT1250;RENAULT1250
RENAULT1275;RENAULT1275
RENAULT1280;RENAULT1280
RENAULT1345;RENAULT1345
RENAULT1355;RENAULT1355
RENAULT1390;RENAULT1390
RENAULT1395;RENAULT1395
RENAULT1435;RENAULT1435
RENAULT1482;RENAULT1482
RENAULT1505;RENAULT1505
RENAULT2;RENAULT2
RENAULT3;RENAULT3
RENAULT340;RENAULT340
RENAULT350;RENAULT350
RENAULT365;RENAULT365
RENAULT5.20;RENAULT5.20
RENAULT50;RENAULT50
RENAULT5022EP746;RENAULT5022EP746
RENAULT5312AP526;RENAULT5312AP526
RENAULT55;RENAULT55
RENAULT6;RENAULT6
RENAULT8;RENAULT8
RENAULT830;RENAULT830
RENAULT9;RENAULT9
RENAULT900;RENAULT900
RENAULT975;RENAULT975
RENAULT985;RENAULT985
RENAULT995;RENAULT995
RENAULTA;RENAULTA
RENAULTA11;RENAULTA11
RENAULTC57;RENAULTC57
RENAULTCASTEL;RENAULTCASTEL
RENAULTCLIO;RENAULTCLIO
RENAULTI;RENAULTI
RENAULTJ;RENAULTJ
RENAULTJA;RENAULTJA
RENAULTL;RENAULTL
RENAULTM;RENAULTM
RENAULTM10RENVP0096533;RENAULTM10RENVP0096533
RENAULTMOOVEO;RENAULTMOOVEO
RENAULTMOREL;RENAULTMOREL
RENAULTMRE;RENAULTMRE
RENAULTMRE5021EK161;RENAULTMRE5021EK161
RENAULTN;RENAULTN
RENAULTPL;RENAULTPL
RENAULTR11;RENAULTR11
RENAULTRE;RENAULTRE
RENAULTTWINGO;RENAULTTWINGO
RENAULTV;RENAULTV
RENAULTVF;RENAULTVF
RENAULTVF1BB0U0F21737362;RENAULTVF1BB0U0F21737362
RENAULY;RENAULY
RENAUMT;RENAUMT
RENAUOLT;RENAUOLT
RENAUT;RENAUT
RENAUT TECH;RENAUT TECH
RENAUTL;RENAUTL
RENAUULTP;RENAUULTP
RENAYULT;RENAYULT
RENBAULT;RENBAULT
RENE BONNET;RENE BONNET
RENEULT;RENEULT
RENJAULT;RENJAULT
RENMULT;RENMULT
RENNAULT;RENNAULT
RENOVA;RENOVA
RENOVA SRL;RENOVA SRL
RENUALT;RENUALT
RENULT;RENULT
RENZULT;RENZULT
REO;REO
REPLICAR LDA;REPLICAR LDA
RERNAULT;RERNAULT
REULIEZ BUS;REULIEZ BUS
REZNAULT;REZNAULT
RFBRENAULT;RENAULT
RFENAULT;RFENAULT
RFIAT;FIAT
RILEY;RILEY
RIMOR;RIMOR
RIMOR/FORD;FORD
RIMOR/XGO;RIMOR/XGO
RISASTELLA;RISASTELLA
RISBUS;RISBUS
RITTER;RITTER
RMB;RMB
RMB GENTRY;RMB GENTRY
RMG GENTRY;RMG GENTRY
RNAULT;RNAULT
RNEAULT;RNEAULT
ROADMASTER;ROADMASTER
ROAS;ROAS
ROAS-SHELBY;ROAS-SHELBY
ROBIN HOOD;ROBIN HOOD
ROBINHOOD;ROBINHOOD
ROBINI HOOD;ROBINI HOOD
ROCHET SCHNEIDER;ROCHET SCHNEIDER
RODRIGUEZ LOPEZ AUTO;RODRIGUEZ LOPEZ AUTO
ROGERS CUSTOM;ROGERS CUSTOM
ROHILL;ROHILL
ROLL ROYCE;ROLL ROYCE
ROLLAND PILAIN;ROLLAND PILAIN
ROLLER TEA;ROLLER TEA
ROLLER TEAM;ROLLER TEAM
ROLLER TEAM - TRIGANO;ROLLER TEAM - TRIGANO
ROLLER TEAM TRIGANO SPA;ROLLER TEAM TRIGANO SPA
ROLLS ROYC;ROLLS ROYC
ROLLS ROYCE;ROLLS ROYCE
ROLLS-ROYCE;ROLLS-ROYCE
ROLLSROY;ROLLSROY
ROLLSROYCE;ROLLSROYCE
ROLOT MC LOUIS;ROLOT MC LOUIS
ROMEO;ROMEO
RONART;RONART
ROSENCART;ROSENCART
ROSENGAART;ROSENGAART
ROSENGART;ROSENGART
ROSERO - P;ROSERO - P
ROUSSEAUCITROEN;CITROEN
ROVER;ROVER
ROVER BIKES;ROVER BIKES
ROVER GROUP;ROVER GROUP
ROVER MINI;ROVER MINI
ROVERMINI;ROVERMINI
ROVIN;ROVIN
ROYAL ENFIELD;ROYAL ENFIELD
RPEUGEOT;PEUGEOT
RRENAULT;RENAULT
RTENAULT;RTENAULT
RUDGE;RUDGE
RUF;RUF
RUNUNION;RUNUNION
RUSH;RUSH
RUSKA;RUSKA
RVI CAMIVA;RVI CAMIVA
RVI SIDES;RVI SIDES
RVI VUTC;RVI VUTC
RZENAULT;RZENAULT
S                EAT;S                EAT
S M S;S M S
S.E.A;S.E.A
S.E.A.;S.E.A.
S.E.A. ELNAGH;S.E.A. ELNAGH
S.M.S.;S.M.S.
S.P.A.G.;S.P.A.G.
S51FF01;S51FF01
SAAB;SAAB
SAABAD;SAABAD
SABHY6/SDS;SABHY6/SDS
SABNSHONDA;SABNSHONDA
SACHSENRING;SACHSENRING
SACITROEN;CITROEN
SAFARI;SAFARI
SAFRA;SAFRA
SALMSON;SALMSON
SALOMON;SALOMON
SALSON;SALSON
SAMAS;SAMAS
SAME;SAME
SAMSUNG;SAMSUNG
SANATAN;SANATAN
SANFORD;FORD
SANICAR;SANICAR
SANS;SANS
SANS OFORD;FORD
SANSFORD;FORD
SANSRENAULT;RENAULT
SANTAN;SANTAN
SANTANA;SANTANA
SANTANA.;SANTANA.
SANTANAI;SANTANAI
SARAP;SARAP
SARAP B.;SARAP B.
SARAP BUFFALO;SARAP BUFFALO
SARAP/BUFFALO;SARAP/BUFFALO
SAURER;SAURER
SAVIEM;SAVIEM
SCAM;SCAM
SCANIA;SCANIA
SCANIA FRANCE;SCANIA FRANCE
SCANNIA;SCANNIA
SCHMITT;SCHMITT
SCODA;SCODA
DAEWOO;DAEWOO
SEA;SEA
SEA-FIAT;FIAT
SEAT;SEAT
SEAT LICENCE FIAT;FIAT
SEAT S.A;SEAT S.A
SEAT SA;SEAT SA
SEAT.;SEAT.
SEAT1209;SEAT1209
SECMA;SECMA
SEHRENAULT;RENAULT
SEITZ;SEITZ
SENECHAL;SENECHAL
SERENAULT;RENAULT
SETR;SETR
SETRA;SETRA
SFORD;FORD
SHELBY;SHELBY
SHELBY COBRA;SHELBY COBRA
SHELBY SPF;SHELBY SPF
SHELDONHURST;SHELDONHURST
SHELL VALLEY;SHELL VALLEY
SHELL VALLEY LTD;SHELL VALLEY LTD
SHUANGHUAN;SHUANGHUAN
SIATA;SIATA
SIMCA;SIMCA
SIMCA ARIA;SIMCA ARIA
SIMCA ARIANE;SIMCA ARIANE
SIMCA ARON;SIMCA ARON
SIMCA ARONDE;SIMCA ARONDE
SIMCA FIAT;FIAT
SIMCA TALBOT;SIMCA TALBOT
SIMCA VEDE;SIMCA VEDE
SIMCA VEDETTE;SIMCA VEDETTE
SIMCA-ARONDE;SIMCA-ARONDE
SIMCAAROND;SIMCAAROND
SIMPLEX;SIMPLEX
SIMSON;SIMSON
SINGER;SINGER
SIPLJPEUGEOT;PEUGEOT
SITEOPEL;OPEL
SIZAIRE FRERES;SIZAIRE FRERES
SKFORD;FORD
SKIDA;SKIDA
SKOD;SKOD
SKODA;SKODA
ŠKODA;ŠKODA
SKODA      .;SKODA      .
SKODA AUTO;SKODA AUTO
SKODA.;SKODA.
SKODDA;SKODDA
SLKODA;SLKODA
SLODA;SLODA
SMART;SMART
SMART ;SMART 
SMART BRABUS;SMART BRABUS
SMART FRANCE;SMART FRANCE
SMART URBAN;SMART URBAN
SMART*-;SMART*-
SMARTELEKTRO;SMARTELEKTRO
SMS;SMS
SOLARIE;SOLARIE
SOLARIS;SOLARIS
SOMAC;SOMAC
SORED;SORED
SOUTHERN ROADCRAFT;SOUTHERN ROADCRAFT
SOVAM;SOVAM
SOVAMAG;SOVAMAG
SOVRA;SOVRA
SOVRA LM;SOVRA LM
SPARTAN;SPARTAN
SPEUGEOT;PEUGEOT
SPF FORD;FORD
SPITFIRE;SPITFIRE
SPORSCHE;SPORSCHE
SPORT MATRA;SPORT MATRA
SPRINGFIELD COACH IND;SPRINGFIELD COACH IND
SPRINTER;SPRINTER
SPYKER;SPYKER
SSAB;SSAB
SSANG YONG;SSANG YONG
SSANGYONG;SSANGYONG
SSANGYONG2031;SSANGYONG2031
SSC;SSC
SSR;SSR
SSUZUKI;SSUZUKI
SSVENSK TURBO;SSVENSK TURBO
STANDARD;STANDARD
STANLEY;STANLEY
STAR;STAR
STERCKEMAN;STERCKEMAN
STEYR;STEYR
STEYR PUCH PINZGAUER;STEYR PUCH PINZGAUER
STEYR-PUCH;STEYR-PUCH
STUDEBAK;STUDEBAK
STUDEBAKER;STUDEBAKER
STVOLKSWAGEN;VOLKSWAGEN
STX;STX
STYLEVAN;STYLEVAN
SUBARU;SUBARU
SUBARU OUTBACK;SUBARU OUTBACK
SUBURA;SUBURA
SUN LIVING;SUN LIVING
SUN ROLLER;SUN ROLLER
SUNBEAM;SUNBEAM
SUNBEAN;SUNBEAN
SUNCAR;SUNCAR
SUNROLLER;SUNROLLER
SUNSUNDEGUI;SUNSUNDEGUI
SUPERFORMANCE;SUPERFORMANCE
SUPEUGEOT;PEUGEOT
SUSUKI;SUSUKI
SUZ;SUZ
SUZIKI;SUZIKI
SUZKI;SUZKI
SUZU;SUZU
SUZUK;SUZUK
SUZUKI;SUZUKI
SUZUKÎ;SUZUKÎ
SUZUKÏ;SUZUKÏ
SUZUKI CAMI;SUZUKI CAMI
SUZUKI MOTOR;SUZUKI MOTOR
SUZUKI SANTANA;SUZUKI SANTANA
SUZUKI SANTANA MOTOR ANDA;SUZUKI SANTANA MOTOR ANDA
SUZUKI.;SUZUKI.
SUZUKIW;SUZUKIW
SUZUKY;SUZUKY
SUZULI;SUZULI
SVENSK TURBO;SVENSK TURBO
SVOLKSWAGEN;VOLKSWAGEN
SWAGEN;SWAGEN
SWIFF GROUP LIMITED;SWIFF GROUP LIMITED
SWIFT;SWIFT
SWIFT GROUP LIMITED;SWIFT GROUP LIMITED
SYLVA;SYLVA
SYLVA MOJO SE;SYLVA MOJO SE
SYULEYMANVOLKSWAGEN;VOLKSWAGEN
T 00OYOTA;T 00OYOTA
T CITROEN;CITROEN
T.V.R.;T.V.R.
TABBERT;TABBERT
TABUSSIATRENAULT;RENAULT
TAIQI;TAIQI
TALBOT;TALBOT
TALBOT MAT;TALBOT MAT
TALBOT MATRA;TALBOT MATRA
TALBOT SIMCA;TALBOT SIMCA
TALBOT-LAGO;TALBOT-LAGO
TALBOT/PEUGEOT;PEUGEOT
TATA;TATA
TATRA;TATRA
TAUDI;AUDI
TAZZARI;TAZZARI
TCHOURENAULT;RENAULT
TCITROEN;CITROEN
TCP;TCP
TEAL;TEAL
TEC;TEC
TEC ;TEC 
TEC CARAVA;TEC CARAVA
TEC CARAVAN;TEC CARAVAN
TEILHOL;TEILHOL
TEKAYDINLAR;TEKAYDINLAR
TELCO;TELCO
TEMPSA;TEMPSA
TEMSA;TEMSA
TEMSA SKODA SABANCI;TEMSA SKODA SABANCI
TEMSAA;TEMSAA
TESLA;TESLA
TESLA MOTORS;TESLA MOTORS
TESSERAULT;TESSERAULT
THE  LONDON TAXI COMPANY;THE  LONDON TAXI COMPANY
THE EXPLORER GROUP LIMITED;THE EXPLORER GROUP LIMITED
THE LONDON TAXI COMPAGNY;THE LONDON TAXI COMPAGNY
THE LONDON TAXI COMPANY;THE LONDON TAXI COMPANY
THINK;THINK
THOMAS;THOMAS
TIFFIN;TIFFIN
TIGER;TIGER
TIOYOTA;TIOYOTA
TOIYOTA;TOIYOTA
TOMOS;TOMOS
TOTH ES FIAI;TOTH ES FIAI
TOTOTA;TOTOTA
TOTOYA;TOTOYA
TOTYOTA;TOTYOTA
TOUOTA;TOUOTA
TOURAN;TOURAN
TOURNE MOBIL;TOURNE MOBIL
TOY;TOY
TOYAOTA;TOYAOTA
TOYATA;TOYATA
TOYO;TOYO
TOYOT;TOYOT
TOYOTA;TOYOTA
TOYOTA ;TOYOTA 
TOYOTA                                           .;TOYOTA                                           .
TOYOTA AUTO BODY;TOYOTA AUTO BODY
TOYOTA MOTOR;TOYOTA MOTOR
TOYOTA MOTOR FRANCE;TOYOTA MOTOR FRANCE
TOYOTA PRIUS  2;TOYOTA PRIUS  2
TOYOTA SUPRA;TOYOTA SUPRA
TOYOTA-;TOYOTA-
TOYOTA.;TOYOTA.
TOYOTA00;TOYOTA00
TOYOTADENEVE;TOYOTADENEVE
TOYOTAH;TOYOTAH
TOYOTAT;TOYOTAT
TOYOTAZ;TOYOTAZ
TOYOTOA;TOYOTOA
TOYOTZ;TOYOTZ
TOYOYA;TOYOYA
TOYOYTA;TOYOYTA
TOYTA;TOYTA
TOYTOA;TOYTOA
TOYTOTA;TOYTOTA
TOYYOTA;TOYYOTA
TPEUGEOT;PEUGEOT
TRABABT;TRABABT
TRABAN;TRABAN
TRABANT;TRABANT
TRACTION;TRACTION
TRAFIC;TRAFIC
TRAFIC ;TRAFIC 
TRAILOR;TRAILOR
TRGANO S.P.A.;TRGANO S.P.A.
TRGANO VDL;TRGANO VDL
TRI GANO;TRI GANO
TRIBANO;TRIBANO
TRIGANO;TRIGANO
TRIGANO ;TRIGANO 
TRIGANO S P A;TRIGANO S P A
TRIGANO S.;TRIGANO S.
TRIGANO S.P.A;TRIGANO S.P.A
TRIGANO S.P.A.;TRIGANO S.P.A.
TRIGANO S.PA;TRIGANO S.PA
TRIGANO SP;TRIGANO SP
TRIGANO SPA;TRIGANO SPA
TRIGANO SPA / FIAT;FIAT
TRIGANO SPA/FORD;FORD
TRIGANO VD;TRIGANO VD
TRIGANO VDL;TRIGANO VDL
TRIGANO/CHALLENGER;TRIGANO/CHALLENGER
TRIGANOI;TRIGANOI
TRIGANOSPA;TRIGANOSPA
TRIMPH;TRIMPH
TRIPOD;TRIPOD
TRIU;TRIU
TRIUMPH;TRIUMPH
TRIUMPH/MOSS;TRIUMPH/MOSS
TRIUPH;TRIUPH
TROUILLET;TROUILLET
TRTEC;TRTEC
TRUIMPH;TRUIMPH
TRUMPH;TRUMPH
TUMH 105;TUMH 105
TURPAINRENAULT;RENAULT
TURRI  BOARI;TURRI  BOARI
TURRI & BOARI;TURRI & BOARI
TVR;TVR
TWINGORENAULT;RENAULT
TXU-TXU;TXU-TXU
U.M.M;U.M.M
UAZ;UAZ
UCARPEUGEOT;PEUGEOT
UGEOT;UGEOT
UGUR KAROSER;UGUR KAROSER
UHONDA;UHONDA
ULTIMA;ULTIMA
UMM;UMM
UN PEUVOLKSWAGEN;VOLKSWAGEN
UNIC;UNIC
UNICC;UNICC
UNIMOG;UNIMOG
UNIQUE MOTOCARS;UNIQUE MOTOCARS
UNIQUE MOTORCARS;UNIQUE MOTORCARS
UNIQUE MOTORVARS;UNIQUE MOTORVARS
UNVI;UNVI
UPE5311KS077;UPE5311KS077
URIEPEUGEOT;PEUGEOT
URIRENAULT;RENAULT
UU15SDDACIA;DACIA
UUDACIA;DACIA
UW;UW
V W;V W
V.W.;V.W.
V0LKSWAGEN;V0LKSWAGEN
V0LV0;V0LV0
VAH HOOL;VAH HOOL
VAL DE L.;VAL DE L.
VALDELOIRE;VALDELOIRE
VALIANT;VALIANT
VAN HOL;VAN HOL
VAN HOOL;VAN HOOL
VANDEN PLA;VANDEN PLA
VANHOOL;VANHOOL
VANSTER;VANSTER
VANVOLKSWAGEN;VOLKSWAGEN
VANWORX LEISURE VEHICLE SPECIALISTS LTD;VANWORX LEISURE VEHICLE SPECIALISTS LTD
VASP;VASP
VASQUEZ DEL RIOVOLKSWAGEN;VOLKSWAGEN
VAUCHIERVOLKSWAGEN;VOLKSWAGEN
VAUXHALL;VAUXHALL
VAUXHALLOPEL;OPEL
VAZ;VAZ
VB.M.W.;VB.M.W.
VDL;VDL
VDL BOVA;VDL BOVA
VDL BUS;VDL BUS
VDL JONCKHEERE;VDL JONCKHEERE
VDL KUSTERS;VDL KUSTERS
VEEP;VEEP
VEHIXEL;VEHIXEL
VEHIXEL CARROSIER CONSTRUCTEUR;VEHIXEL CARROSIER CONSTRUCTEUR
VEHIXEL CARROSSIER CONSTR;VEHIXEL CARROSSIER CONSTR
VEHIXEL CARROSSIER CONSTRUCTEUR;VEHIXEL CARROSSIER CONSTRUCTEUR
VEHIXEL CARROSSIER CONSTRUCTEUR CONSTRUCTEUR;VEHIXEL CARROSSIER CONSTRUCTEUR CONSTRUCTEUR
VELAM;VELAM
VELOSOLEX;VELOSOLEX
VENTURI;VENTURI
VEOLIA;VEOLIA
VEPB;VEPB
VERMOREL;VERMOREL
VESPA;VESPA
VF15R040H49804857;VF15R040H49804857
VF15RB20A56911565RENAULT;RENAULT
VF1BB0ARENAULT;RENAULT
VF1BBR7CF32494110;VF1BBR7CF32494110
VF1CB8M0538647875;VF1CB8M0538647875
VF1CNAA0540687646RENAULT;RENAULT
VF1RFA0RENAULT;RENAULT
VF3LBBHYBFS295739;VF3LBBHYBFS295739
VF3VFAHKHJZ032426;VF3VFAHKHJZ032426
VFPEUGEOT;PEUGEOT
VFRENAULT;RENAULT
VIASA;VIASA
VIKJSWAGEN;VIKJSWAGEN
VILAMOBIL;VILAMOBIL
VILKSWAGEN;VILKSWAGEN
VILLAUDI;AUDI
VINOT DEGUINGAND;VINOT DEGUINGAND
VINTAGE SPEEDSTER;VINTAGE SPEEDSTER
VINTAGE SPEEDSTERS;VINTAGE SPEEDSTERS
VITARA;VITARA
VITO;VITO
VITREYDACIA;DACIA
VLKSWAGEN;VLKSWAGEN
VLOKSWAGEN;VLOKSWAGEN
VMVK;VMVK
VNA HOOL;VNA HOOL
VO;VO
VOISIN;VOISIN
VOKLSWAGEN;VOKLSWAGEN
VOKSWAGEN;VOKSWAGEN
VOKSWAGENL;VOKSWAGENL
VOLDSWAGEN;VOLDSWAGEN
VOLERO;VOLERO
VOLGA;VOLGA
VOLISWAGEN;VOLISWAGEN
VOLJKSWAGEN;VOLJKSWAGEN
VOLK;VOLK
VOLK SWAGEN;VOLK SWAGEN
VOLKASWAGEN;VOLKASWAGEN
VOLKKSWAGEN;VOLKKSWAGEN
VOLKS;VOLKS
VOLKSAGEN;VOLKSAGEN
VOLKSAWAGEN;VOLKSAWAGEN
VOLKSAWGEN;VOLKSAWGEN
VOLKSKWAGEN;VOLKSKWAGEN
VOLKSVAGEN;VOLKSVAGEN
VOLKSVAGEN AG;VOLKSVAGEN AG
VOLKSVAGEN.;VOLKSVAGEN.
VOLKSWA;VOLKSWA
VOLKSWAAGEN;VOLKSWAAGEN
VOLKSWAEGN;VOLKSWAEGN
VOLKSWAEN;VOLKSWAEN
VOLKSWAG;VOLKSWAG
VOLKSWAGE;VOLKSWAGE
VOLKSWAGEB;VOLKSWAGEB
VOLKSWAGEM;VOLKSWAGEM
VOLKSWAGEN;VOLKSWAGEN
VOLKSWAGËN;VOLKSWAGËN
VOLKSWAGEN ;VOLKSWAGEN 
VOLKSWAGEN                                       .;VOLKSWAGEN                                       .
VOLKSWAGEN                                      .;VOLKSWAGEN                                      .
VOLKSWAGEN                          .;VOLKSWAGEN                          .
VOLKSWAGEN                        .;VOLKSWAGEN                        .
VOLKSWAGEN                    .;VOLKSWAGEN                    .
VOLKSWAGEN                  .;VOLKSWAGEN                  .
VOLKSWAGEN                .;VOLKSWAGEN                .
VOLKSWAGEN              .;VOLKSWAGEN              .
VOLKSWAGEN AG;VOLKSWAGEN AG
VOLKSWAGEN MOTORS;VOLKSWAGEN MOTORS
VOLKSWAGEN TRANSPORTER;VOLKSWAGEN TRANSPORTER
VOLKSWAGEN TREND PACK;VOLKSWAGEN TREND PACK
VOLKSWAGEN TRIPOD;VOLKSWAGEN TRIPOD
VOLKSWAGEN VAG;VOLKSWAGEN VAG
VOLKSWAGEN VW;VOLKSWAGEN VW
VOLKSWAGEN- API CZ;VOLKSWAGEN- API CZ
VOLKSWAGEN-VW;VOLKSWAGEN-VW
VOLKSWAGEN, VW;VOLKSWAGEN, VW
VOLKSWAGEN,VW;VOLKSWAGEN,VW
VOLKSWAGEN.;VOLKSWAGEN.
VOLKSWAGEN*;VOLKSWAGEN*
VOLKSWAGEN/AUTO-FORM;VOLKSWAGEN/AUTO-FORM
VOLKSWAGEN<;VOLKSWAGEN<
VOLKSWAGEN00;VOLKSWAGEN00
VOLKSWAGEN064;VOLKSWAGEN064
VOLKSWAGEN1;VOLKSWAGEN1
VOLKSWAGEN1083;VOLKSWAGEN1083
VOLKSWAGEN1173;VOLKSWAGEN1173
VOLKSWAGEN121 RJY 75;VOLKSWAGEN121 RJY 75
VOLKSWAGEN1312;VOLKSWAGEN1312
VOLKSWAGEN1559;VOLKSWAGEN1559
VOLKSWAGEN2;VOLKSWAGEN2
VOLKSWAGEN²;VOLKSWAGEN²
VOLKSWAGEN7;VOLKSWAGEN7
VOLKSWAGENF;VOLKSWAGENF
VOLKSWAGENGUEZGUEZ;VOLKSWAGENGUEZGUEZ
VOLKSWAGENI;VOLKSWAGENI
VOLKSWAGENM;VOLKSWAGENM
VOLKSWAGENP;VOLKSWAGENP
VOLKSWAGENRBEAU;VOLKSWAGENRBEAU
VOLKSWAGENS;VOLKSWAGENS
VOLKSWAGENSPORT;VOLKSWAGENSPORT
VOLKSWAGENT;VOLKSWAGENT
VOLKSWAGENUD;VOLKSWAGENUD
VOLKSWAGEZN;VOLKSWAGEZN
VOLKSWAGNE;VOLKSWAGNE
VOLKSWAHEN;VOLKSWAHEN
VOLKSWGAEN;VOLKSWGAEN
VOLKSWGEB;VOLKSWGEB
VOLKSWGEN;VOLKSWGEN
VOLKSWWAGE;VOLKSWWAGE
VOLKSWWAGEN;VOLKSWWAGEN
VOLKSWZAGEN;VOLKSWZAGEN
VOLKSXAGEN;VOLKSXAGEN
VOLKSXWAGEN;VOLKSXWAGEN
VOLKWAGEN;VOLKWAGEN
VOLKWAGWEN;VOLKWAGWEN
VOLKWASGEN;VOLKWASGEN
VOLKWSWAGEN;VOLKWSWAGEN
VOLKXWAGEN;VOLKXWAGEN
VOLLSWAGEN;VOLLSWAGEN
VOLOKSWAGEN;VOLOKSWAGEN
VOLSKSWAGEN;VOLSKSWAGEN
VOLSKWAGEN;VOLSKWAGEN
VOLSWAGEN;VOLSWAGEN
VOLVKWAGEN;VOLVKWAGEN
VOLVO;VOLVO
VOLVO - MENCI;VOLVO - MENCI
VOLVO BM;VOLVO BM
VOLVO BUS;VOLVO BUS
VOLVOL;VOLVOL
VOLWAGEN;VOLWAGEN
VOLWSWAGEN;VOLWSWAGEN
VOSGIENCITROEN;CITROEN
VOSKSWAGEN;VOSKSWAGEN
VOVLO;VOVLO
VOVLVO;VOVLVO
VOVO;VOVO
VP;VP
VPLKSWAGEN;VPLKSWAGEN
VRENAULT;RENAULT
VVOLKSWAGEN;VOLKSWAGEN
VW;VW
VW MOD;VW MOD
VW/AUTO-FORM;VW/AUTO-FORM
W DACIA;DACIA
WANHOOL;WANHOOL
WARD LA FRANCE;WARD LA FRANCE
WARMIAKI / MB SPRINTER;WARMIAKI / MB SPRINTER
WARTBURG;WARTBURG
WAS;WAS
WDB9066571S462276;WDB9066571S462276
WDF44770313620436;WDF44770313620436
WEINSBERG;WEINSBERG
WESTFALIA;WESTFALIA
WESTFIELD;WESTFIELD
WESTFIELD SE;WESTFIELD SE
WESTFIELD SPORTCARS;WESTFIELD SPORTCARS
WF05XXGCC5FS30600;WF05XXGCC5FS30600
WHITE ROSE LOCUST;WHITE ROSE LOCUST
WIESMANN;WIESMANN
WILCOX LIMOUSINES;WILCOX LIMOUSINES
WILLIS;WILLIS
WILLYS;WILLYS
WILLYS FIRD;WILLYS FIRD
WILLYS JEEP;WILLYS JEEP
WILLYS MB;WILLYS MB
WILLYS OVE;WILLYS OVE
WILLYS OVERLAND;WILLYS OVERLAND
WILLYS OVERLAND MB;WILLYS OVERLAND MB
WILLYSOVER;WILLYSOVER
WINGAMM;WINGAMM
WINNEBAGO;WINNEBAGO
WINNEBAGO ASPECT;WINNEBAGO ASPECT
WOLKSWAGEN;WOLKSWAGEN
WOLKSWAGEN-VW;WOLKSWAGEN-VW
WOLKSWAGEN,VW;WOLKSWAGEN,VW
WOLKSWAGNE;WOLKSWAGNE
WOLSELEY;WOLSELEY
WOPEL;OPEL
WORKHORSE;WORKHORSE
WORKSHORSE;WORKSHORSE
WORRELL;WORRELL
WRANGLER;WRANGLER
WRENAULT;RENAULT
WV;WV
WVOLKSWAGEN;VOLKSWAGEN
WYLLYS;WYLLYS
XANTIA;XANTIA
XGO;XGO
XIAMEN KING LONG UNITED AUTOMOTIVE INDUSTRY CO LTD;XIAMEN KING LONG UNITED AUTOMOTIVE INDUSTRY CO LTD
XXRENAULT;RENAULT
YAMAHA;YAMAHA
YAMAHA RAPTOR;YAMAHA RAPTOR
YAMAHARA;YAMAHARA
YARIS;YARIS
YENEPEUGEOT;PEUGEOT
YMERCEDES BENZ;MERCEDES
YUKSELMINI;YUKSELMINI
YUNDAI;YUNDAI
YUTONG;YUTONG
ZAFIRA;OPEL
ZASTAVA;DIVERS
ZAZ;DIVERS
ZBMW;BMW
ZIMMER;DACIA
ZMERCEDES BENZ;MERCEDES
ZONGSHEN;DACIA
ZRENAULT;RENAULT
ZSPEUGEOT;PEUGEOT
ZUNDAPP;DACIA
